[
    {
        "data": " {cost -> 7110.5348199455, time-> 09:05:32.5051370} ", 
        "ind": "0"
    }, 
    {
        "data": " {cost -> 15887.3401916101, time-> 09:05:32.8898640} ", 
        "ind": "1"
    }, 
    {
        "data": " {cost -> 10249.1030583243, time-> 09:05:33.0283720} ", 
        "ind": "2"
    }, 
    {
        "data": " {cost -> 15090.9721924267, time-> 09:05:33.2462280} ", 
        "ind": "3"
    }, 
    {
        "data": " {cost -> 6012.27549864728, time-> 09:05:33.3420320} ", 
        "ind": "4"
    }, 
    {
        "data": " {cost -> 20178.9690987419, time-> 09:05:33.5018520} ", 
        "ind": "5"
    }, 
    {
        "data": " {cost -> 21289.5572805344, time-> 09:05:33.5607420} ", 
        "ind": "6"
    }, 
    {
        "data": " {cost -> 7002.65303527014, time-> 09:05:33.7884760} ", 
        "ind": "7"
    }, 
    {
        "data": " {cost -> 18290.551658044, time-> 09:05:33.9621090} ", 
        "ind": "8"
    }, 
    {
        "data": " {cost -> 9941.89851822646, time-> 09:05:34.1681740} ", 
        "ind": "9"
    }, 
    {
        "data": " {cost -> 23295.8264438967, time-> 09:05:34.2971710} ", 
        "ind": "10"
    }, 
    {
        "data": " {cost -> 18346.7411656346, time-> 09:05:34.6278060} ", 
        "ind": "11"
    }, 
    {
        "data": " {cost -> 10276.7857756282, time-> 09:05:34.7833780} ", 
        "ind": "12"
    }, 
    {
        "data": " {cost -> 18692.5032343738, time-> 09:05:34.9706580} ", 
        "ind": "13"
    }, 
    {
        "data": " {cost -> 14209.419298932, time-> 09:05:35.1839680} ", 
        "ind": "14"
    }, 
    {
        "data": " {cost -> 6757.45809597284, time-> 09:05:35.3185170} ", 
        "ind": "15"
    }, 
    {
        "data": " {cost -> 17373.5748110386, time-> 09:05:35.4292050} ", 
        "ind": "16"
    }, 
    {
        "data": " {cost -> 9613.35447294733, time-> 09:05:35.6623620} ", 
        "ind": "17"
    }, 
    {
        "data": " {cost -> 6812.9346937087, time-> 09:05:35.8270640} ", 
        "ind": "18"
    }, 
    {
        "data": " {cost -> 10785.9983672528, time-> 09:05:36.0103210} ", 
        "ind": "19"
    }, 
    {
        "data": " {cost -> 21651.7133278744, time-> 09:05:36.1448520} ", 
        "ind": "20"
    }, 
    {
        "data": " {cost -> 9578.20514952881, time-> 09:05:36.3322300} ", 
        "ind": "21"
    }, 
    {
        "data": " {cost -> 5705.2198189699, time-> 09:05:36.4769580} ", 
        "ind": "22"
    }, 
    {
        "data": " {cost -> 15696.5105117317, time-> 09:05:36.6246880} ", 
        "ind": "23"
    }, 
    {
        "data": " {cost -> 22015.9269467922, time-> 09:05:36.7565880} ", 
        "ind": "24"
    }, 
    {
        "data": " {cost -> 8885.42648831558, time-> 09:05:37.0091610} ", 
        "ind": "25"
    }, 
    {
        "data": " {cost -> 20246.8299931216, time-> 09:05:37.1302560} ", 
        "ind": "26"
    }, 
    {
        "data": " {cost -> 17283.5128804843, time-> 09:05:37.2612290} ", 
        "ind": "27"
    }, 
    {
        "data": " {cost -> 7172.19408692744, time-> 09:05:37.5117240} ", 
        "ind": "28"
    }, 
    {
        "data": " {cost -> 20873.4910224228, time-> 09:05:37.5983550} ", 
        "ind": "29"
    }, 
    {
        "data": " {cost -> 16671.0719174026, time-> 09:05:37.7650700} ", 
        "ind": "30"
    }, 
    {
        "data": " {cost -> 12389.878060986, time-> 09:05:37.9179870} ", 
        "ind": "31"
    }, 
    {
        "data": " {cost -> 21401.9828968603, time-> 09:05:38.0627580} ", 
        "ind": "32"
    }, 
    {
        "data": " {cost -> 13827.2439107548, time-> 09:05:38.2488370} ", 
        "ind": "33"
    }, 
    {
        "data": " {cost -> 8678.82091528873, time-> 09:05:38.3798960} ", 
        "ind": "34"
    }, 
    {
        "data": " {cost -> 7430.01822157553, time-> 09:05:38.5078030} ", 
        "ind": "35"
    }, 
    {
        "data": " {cost -> 20235.4543105319, time-> 09:05:38.7205990} ", 
        "ind": "36"
    }, 
    {
        "data": " {cost -> 11203.6919145761, time-> 09:05:38.8344890} ", 
        "ind": "37"
    }, 
    {
        "data": " {cost -> 7880.17873599326, time-> 09:05:38.9663440} ", 
        "ind": "38"
    }, 
    {
        "data": " {cost -> 16127.3676899926, time-> 09:05:39.1683100} ", 
        "ind": "39"
    }, 
    {
        "data": " {cost -> 9322.95316906552, time-> 09:05:39.4317820} ", 
        "ind": "40"
    }, 
    {
        "data": " {cost -> 13372.1066039604, time-> 09:05:39.5336570} ", 
        "ind": "41"
    }, 
    {
        "data": " {cost -> 19965.5017311239, time-> 09:05:39.6346910} ", 
        "ind": "42"
    }, 
    {
        "data": " {cost -> 13397.0443372736, time-> 09:05:39.8807760} ", 
        "ind": "43"
    }, 
    {
        "data": " {cost -> 14865.0366287646, time-> 09:05:40.0222790} ", 
        "ind": "44"
    }, 
    {
        "data": " {cost -> 15252.936074783, time-> 09:05:40.1478960} ", 
        "ind": "45"
    }, 
    {
        "data": " {cost -> 11472.7576281256, time-> 09:05:40.2711560} ", 
        "ind": "46"
    }, 
    {
        "data": " {cost -> 20442.1979066478, time-> 09:05:40.5086340} ", 
        "ind": "47"
    }, 
    {
        "data": " {cost -> 6309.46176647844, time-> 09:05:40.6280490} ", 
        "ind": "48"
    }, 
    {
        "data": " {cost -> 17300.1050588703, time-> 09:05:40.7482440} ", 
        "ind": "49"
    }, 
    {
        "data": " {cost -> 46211.0754600585, time-> 09:05:40.9650570} ", 
        "ind": "50"
    }, 
    {
        "data": " {cost -> 28680.482030967, time-> 09:05:41.2351770} ", 
        "ind": "51"
    }, 
    {
        "data": " {cost -> 23941.2223120466, time-> 09:05:41.3137390} ", 
        "ind": "52"
    }, 
    {
        "data": " {cost -> 20900.8423359253, time-> 09:05:41.3830070} ", 
        "ind": "53"
    }, 
    {
        "data": " {cost -> 7374.66881535054, time-> 09:05:41.6286620} ", 
        "ind": "54"
    }, 
    {
        "data": " {cost -> 22038.5852584709, time-> 09:05:41.7147360} ", 
        "ind": "55"
    }, 
    {
        "data": " {cost -> 21751.2754074739, time-> 09:05:41.8933540} ", 
        "ind": "56"
    }, 
    {
        "data": " {cost -> 8307.69513724136, time-> 09:05:42.0708120} ", 
        "ind": "57"
    }, 
    {
        "data": " {cost -> 11568.1018488546, time-> 09:05:42.2531970} ", 
        "ind": "58"
    }, 
    {
        "data": " {cost -> 8703.9088003934, time-> 09:05:42.3546540} ", 
        "ind": "59"
    }, 
    {
        "data": " {cost -> 10308.5220161156, time-> 09:05:42.5112090} ", 
        "ind": "60"
    }, 
    {
        "data": " {cost -> 18156.888934463, time-> 09:05:42.6015980} ", 
        "ind": "61"
    }, 
    {
        "data": " {cost -> 18705.2978306598, time-> 09:05:42.8359130} ", 
        "ind": "62"
    }, 
    {
        "data": " {cost -> 20950.7047009685, time-> 09:05:42.9582440} ", 
        "ind": "63"
    }, 
    {
        "data": " {cost -> 10255.2114904018, time-> 09:05:43.0403790} ", 
        "ind": "64"
    }, 
    {
        "data": " {cost -> 6805.96835699965, time-> 09:05:43.2094130} ", 
        "ind": "65"
    }, 
    {
        "data": " {cost -> 20037.2955325877, time-> 09:05:43.4136440} ", 
        "ind": "66"
    }, 
    {
        "data": " {cost -> 14744.474754195, time-> 09:05:43.4997650} ", 
        "ind": "67"
    }, 
    {
        "data": " {cost -> 11308.0859196792, time-> 09:05:43.5853070} ", 
        "ind": "68"
    }, 
    {
        "data": " {cost -> 14675.7711473875, time-> 09:05:43.6994160} ", 
        "ind": "69"
    }, 
    {
        "data": " {cost -> 21042.3557565715, time-> 09:05:43.9093300} ", 
        "ind": "70"
    }, 
    {
        "data": " {cost -> 6115.01109493941, time-> 09:05:44.0342830} ", 
        "ind": "71"
    }, 
    {
        "data": " {cost -> 7405.33686671382, time-> 09:05:44.1756610} ", 
        "ind": "72"
    }, 
    {
        "data": " {cost -> 18431.4522332419, time-> 09:05:44.2923570} ", 
        "ind": "73"
    }, 
    {
        "data": " {cost -> 20802.8602821659, time-> 09:05:44.5244290} ", 
        "ind": "74"
    }, 
    {
        "data": " {cost -> 23305.1996230441, time-> 09:05:44.6583910} ", 
        "ind": "75"
    }, 
    {
        "data": " {cost -> 7063.72169017937, time-> 09:05:44.7795490} ", 
        "ind": "76"
    }, 
    {
        "data": " {cost -> 15355.9951525932, time-> 09:05:44.8943630} ", 
        "ind": "77"
    }, 
    {
        "data": " {cost -> 7466.30707054171, time-> 09:05:45.1333000} ", 
        "ind": "78"
    }, 
    {
        "data": " {cost -> 12548.6415872525, time-> 09:05:45.2608510} ", 
        "ind": "79"
    }, 
    {
        "data": " {cost -> 9799.16871414746, time-> 09:05:45.4173480} ", 
        "ind": "80"
    }, 
    {
        "data": " {cost -> 9418.17584563503, time-> 09:05:45.5714850} ", 
        "ind": "81"
    }, 
    {
        "data": " {cost -> 13282.5104128823, time-> 09:05:45.8871840} ", 
        "ind": "82"
    }, 
    {
        "data": " {cost -> 10399.3377466701, time-> 09:05:46.0357240} ", 
        "ind": "83"
    }, 
    {
        "data": " {cost -> 18770.4442146178, time-> 09:05:46.1633040} ", 
        "ind": "84"
    }, 
    {
        "data": " {cost -> 12362.5792080733, time-> 09:05:46.4578930} ", 
        "ind": "85"
    }, 
    {
        "data": " {cost -> 14193.0638255193, time-> 09:05:46.6255480} ", 
        "ind": "86"
    }, 
    {
        "data": " {cost -> 15331.4465440454, time-> 09:05:46.7125940} ", 
        "ind": "87"
    }, 
    {
        "data": " {cost -> 6940.80871291046, time-> 09:05:46.9249070} ", 
        "ind": "88"
    }, 
    {
        "data": " {cost -> 11339.994590676, time-> 09:05:47.0635520} ", 
        "ind": "89"
    }, 
    {
        "data": " {cost -> 17815.654874241, time-> 09:05:47.1818340} ", 
        "ind": "90"
    }, 
    {
        "data": " {cost -> 21854.7680911201, time-> 09:05:47.2769190} ", 
        "ind": "91"
    }, 
    {
        "data": " {cost -> 24216.6319047127, time-> 09:05:47.4438550} ", 
        "ind": "92"
    }, 
    {
        "data": " {cost -> 5586.81810212283, time-> 09:05:47.5418940} ", 
        "ind": "93"
    }, 
    {
        "data": " {cost -> 15767.7927843913, time-> 09:05:47.6619010} ", 
        "ind": "94"
    }, 
    {
        "data": " {cost -> 20186.8359346194, time-> 09:05:47.7382680} ", 
        "ind": "95"
    }, 
    {
        "data": " {cost -> 45131.4918400093, time-> 09:05:47.8100820} ", 
        "ind": "96"
    }, 
    {
        "data": " {cost -> 9587.63073873563, time-> 09:05:47.9711740} ", 
        "ind": "97"
    }, 
    {
        "data": " {cost -> 7546.03753796705, time-> 09:05:48.1209790} ", 
        "ind": "98"
    }, 
    {
        "data": " {cost -> 17854.0844561304, time-> 09:05:48.3203110} ", 
        "ind": "99"
    }, 
    {
        "data": " {cost -> 43109.445032806, time-> 09:05:48.4328470} ", 
        "ind": "100"
    }, 
    {
        "data": " {cost -> 6266.53313128218, time-> 09:05:48.6426530} ", 
        "ind": "101"
    }, 
    {
        "data": " {cost -> 16577.2430653573, time-> 09:05:48.7889910} ", 
        "ind": "102"
    }, 
    {
        "data": " {cost -> 5675.80566219601, time-> 09:05:48.9547880} ", 
        "ind": "103"
    }, 
    {
        "data": " {cost -> 9022.58206068623, time-> 09:05:49.0791580} ", 
        "ind": "104"
    }, 
    {
        "data": " {cost -> 16189.3503209299, time-> 09:05:49.3414040} ", 
        "ind": "105"
    }, 
    {
        "data": " {cost -> 17585.3154339069, time-> 09:05:49.4726100} ", 
        "ind": "106"
    }, 
    {
        "data": " {cost -> 16966.2134097395, time-> 09:05:49.5589310} ", 
        "ind": "107"
    }, 
    {
        "data": " {cost -> 23554.7775104743, time-> 09:05:49.8046700} ", 
        "ind": "108"
    }, 
    {
        "data": " {cost -> 8932.25564386085, time-> 09:05:49.9182910} ", 
        "ind": "109"
    }, 
    {
        "data": " {cost -> 21914.7889442498, time-> 09:05:50.0934350} ", 
        "ind": "110"
    }, 
    {
        "data": " {cost -> 14680.8073882982, time-> 09:05:50.2039730} ", 
        "ind": "111"
    }, 
    {
        "data": " {cost -> 12134.939769082, time-> 09:05:50.4361520} ", 
        "ind": "112"
    }, 
    {
        "data": " {cost -> 18533.5195221943, time-> 09:05:50.5479430} ", 
        "ind": "113"
    }, 
    {
        "data": " {cost -> 7584.48256393002, time-> 09:05:50.7407950} ", 
        "ind": "114"
    }, 
    {
        "data": " {cost -> 8975.49815252572, time-> 09:05:50.8510900} ", 
        "ind": "115"
    }, 
    {
        "data": " {cost -> 8891.08944515054, time-> 09:05:51.1583440} ", 
        "ind": "116"
    }, 
    {
        "data": " {cost -> 21040.336888736, time-> 09:05:51.3293730} ", 
        "ind": "117"
    }, 
    {
        "data": " {cost -> 13734.3792220351, time-> 09:05:51.5362080} ", 
        "ind": "118"
    }, 
    {
        "data": " {cost -> 15550.5140053857, time-> 09:05:51.7342920} ", 
        "ind": "119"
    }, 
    {
        "data": " {cost -> 22390.8839233083, time-> 09:05:51.8069160} ", 
        "ind": "120"
    }, 
    {
        "data": " {cost -> 8559.79494338884, time-> 09:05:51.9792320} ", 
        "ind": "121"
    }, 
    {
        "data": " {cost -> 12127.8864795743, time-> 09:05:52.0988010} ", 
        "ind": "122"
    }, 
    {
        "data": " {cost -> 15496.7267583915, time-> 09:05:52.2996250} ", 
        "ind": "123"
    }, 
    {
        "data": " {cost -> 8550.38306583638, time-> 09:05:52.3999040} ", 
        "ind": "124"
    }, 
    {
        "data": " {cost -> 10227.5458947704, time-> 09:05:52.5735680} ", 
        "ind": "125"
    }, 
    {
        "data": " {cost -> 20958.878572133, time-> 09:05:52.7245320} ", 
        "ind": "126"
    }, 
    {
        "data": " {cost -> 18636.6320087231, time-> 09:05:52.9441600} ", 
        "ind": "127"
    }, 
    {
        "data": " {cost -> 17848.1503407247, time-> 09:05:53.0620600} ", 
        "ind": "128"
    }, 
    {
        "data": " {cost -> 17356.5855373256, time-> 09:05:53.2292450} ", 
        "ind": "129"
    }, 
    {
        "data": " {cost -> 5934.25613384246, time-> 09:05:53.3174850} ", 
        "ind": "130"
    }, 
    {
        "data": " {cost -> 8728.79632846123, time-> 09:05:53.5584470} ", 
        "ind": "131"
    }, 
    {
        "data": " {cost -> 14334.3911826257, time-> 09:05:53.6754160} ", 
        "ind": "132"
    }, 
    {
        "data": " {cost -> 13021.6644887306, time-> 09:05:53.7751060} ", 
        "ind": "133"
    }, 
    {
        "data": " {cost -> 6324.6082161578, time-> 09:05:53.8474730} ", 
        "ind": "134"
    }, 
    {
        "data": " {cost -> 24092.2760321772, time-> 09:05:53.9887270} ", 
        "ind": "135"
    }, 
    {
        "data": " {cost -> 14437.7743421964, time-> 09:05:54.1235000} ", 
        "ind": "136"
    }, 
    {
        "data": " {cost -> 18282.6418470893, time-> 09:05:54.3779550} ", 
        "ind": "137"
    }, 
    {
        "data": " {cost -> 7606.03194320584, time-> 09:05:54.4720030} ", 
        "ind": "138"
    }, 
    {
        "data": " {cost -> 16950.9150632544, time-> 09:05:54.7708670} ", 
        "ind": "139"
    }, 
    {
        "data": " {cost -> 6786.48586541116, time-> 09:05:54.9853020} ", 
        "ind": "140"
    }, 
    {
        "data": " {cost -> 7739.60235769669, time-> 09:05:55.1577360} ", 
        "ind": "141"
    }, 
    {
        "data": " {cost -> 9495.49535625224, time-> 09:05:55.4203040} ", 
        "ind": "142"
    }, 
    {
        "data": " {cost -> 16159.8031775206, time-> 09:05:55.5283740} ", 
        "ind": "143"
    }, 
    {
        "data": " {cost -> 21013.4303537802, time-> 09:05:55.6431970} ", 
        "ind": "144"
    }, 
    {
        "data": " {cost -> 7911.54265897565, time-> 09:05:55.8763910} ", 
        "ind": "145"
    }, 
    {
        "data": " {cost -> 14569.3226007455, time-> 09:05:56.0617540} ", 
        "ind": "146"
    }, 
    {
        "data": " {cost -> 53541.9818060894, time-> 09:05:56.1909800} ", 
        "ind": "147"
    }, 
    {
        "data": " {cost -> 6215.19616165531, time-> 09:05:56.4391500} ", 
        "ind": "148"
    }, 
    {
        "data": " {cost -> 25797.0279132125, time-> 09:05:56.5552830} ", 
        "ind": "149"
    }, 
    {
        "data": " {cost -> 14621.0288792367, time-> 09:05:56.7256880} ", 
        "ind": "150"
    }, 
    {
        "data": " {cost -> 7009.45614210923, time-> 09:05:56.8253710} ", 
        "ind": "151"
    }, 
    {
        "data": " {cost -> 7029.35867390605, time-> 09:05:57.0409850} ", 
        "ind": "152"
    }, 
    {
        "data": " {cost -> 21460.7084957139, time-> 09:05:57.1826070} ", 
        "ind": "153"
    }, 
    {
        "data": " {cost -> 6951.74489594268, time-> 09:05:57.2776210} ", 
        "ind": "154"
    }, 
    {
        "data": " {cost -> 17608.4104693242, time-> 09:05:57.4095840} ", 
        "ind": "155"
    }, 
    {
        "data": " {cost -> 16498.4884853586, time-> 09:05:57.6349980} ", 
        "ind": "156"
    }, 
    {
        "data": " {cost -> 12065.3520514455, time-> 09:05:57.8171780} ", 
        "ind": "157"
    }, 
    {
        "data": " {cost -> 8931.36959288075, time-> 09:05:57.9019400} ", 
        "ind": "158"
    }, 
    {
        "data": " {cost -> 8147.9743103826, time-> 09:05:58.0949140} ", 
        "ind": "159"
    }, 
    {
        "data": " {cost -> 7937.50518993012, time-> 09:05:58.2555990} ", 
        "ind": "160"
    }, 
    {
        "data": " {cost -> 26749.7855174639, time-> 09:05:58.3498940} ", 
        "ind": "161"
    }, 
    {
        "data": " {cost -> 15633.7395880166, time-> 09:05:58.4466980} ", 
        "ind": "162"
    }, 
    {
        "data": " {cost -> 6679.66729490226, time-> 09:05:58.6931840} ", 
        "ind": "163"
    }, 
    {
        "data": " {cost -> 8032.1445206642, time-> 09:05:58.8286150} ", 
        "ind": "164"
    }, 
    {
        "data": " {cost -> 21082.0234242268, time-> 09:05:58.8868560} ", 
        "ind": "165"
    }, 
    {
        "data": " {cost -> 13572.8019416215, time-> 09:05:59.0735070} ", 
        "ind": "166"
    }, 
    {
        "data": " {cost -> 8640.62256792859, time-> 09:05:59.3957530} ", 
        "ind": "167"
    }, 
    {
        "data": " {cost -> 23274.6516015572, time-> 09:05:59.5702270} ", 
        "ind": "168"
    }, 
    {
        "data": " {cost -> 8723.18052810116, time-> 09:05:59.8692770} ", 
        "ind": "169"
    }, 
    {
        "data": " {cost -> 20227.3746247753, time-> 09:05:59.9653610} ", 
        "ind": "170"
    }, 
    {
        "data": " {cost -> 13476.8159457746, time-> 09:06:00.1464680} ", 
        "ind": "171"
    }, 
    {
        "data": " {cost -> 7389.68033202918, time-> 09:06:00.3341610} ", 
        "ind": "172"
    }, 
    {
        "data": " {cost -> 9706.03216307912, time-> 09:06:00.5488890} ", 
        "ind": "173"
    }, 
    {
        "data": " {cost -> 7473.24022323503, time-> 09:06:00.8156270} ", 
        "ind": "174"
    }, 
    {
        "data": " {cost -> 13528.5253074046, time-> 09:06:00.9850020} ", 
        "ind": "175"
    }, 
    {
        "data": " {cost -> 5916.10508660638, time-> 09:06:01.0443580} ", 
        "ind": "176"
    }, 
    {
        "data": " {cost -> 17476.160071288, time-> 09:06:01.2071220} ", 
        "ind": "177"
    }, 
    {
        "data": " {cost -> 24595.8388433994, time-> 09:06:01.3498480} ", 
        "ind": "178"
    }, 
    {
        "data": " {cost -> 19010.2049549172, time-> 09:06:01.4630970} ", 
        "ind": "179"
    }, 
    {
        "data": " {cost -> 5788.89964147707, time-> 09:06:01.5724530} ", 
        "ind": "180"
    }, 
    {
        "data": " {cost -> 7236.04473875641, time-> 09:06:01.8101890} ", 
        "ind": "181"
    }, 
    {
        "data": " {cost -> 9063.88141567699, time-> 09:06:02.0655010} ", 
        "ind": "182"
    }, 
    {
        "data": " {cost -> 12715.7933477852, time-> 09:06:02.1559630} ", 
        "ind": "183"
    }, 
    {
        "data": " {cost -> 12183.674000231, time-> 09:06:02.2806430} ", 
        "ind": "184"
    }, 
    {
        "data": " {cost -> 29781.0939317126, time-> 09:06:02.4716590} ", 
        "ind": "185"
    }, 
    {
        "data": " {cost -> 14085.1114254113, time-> 09:06:02.5933390} ", 
        "ind": "186"
    }, 
    {
        "data": " {cost -> 8213.5640658157, time-> 09:06:02.6974970} ", 
        "ind": "187"
    }, 
    {
        "data": " {cost -> 6923.90087638161, time-> 09:06:02.8347330} ", 
        "ind": "188"
    }, 
    {
        "data": " {cost -> 9706.48497930755, time-> 09:06:03.1379490} ", 
        "ind": "189"
    }, 
    {
        "data": " {cost -> 5182.3768098782, time-> 09:06:03.3537710} ", 
        "ind": "190"
    }, 
    {
        "data": " {cost -> 11936.2851926768, time-> 09:06:03.5231920} ", 
        "ind": "191"
    }, 
    {
        "data": " {cost -> 24323.1017146782, time-> 09:06:03.7118020} ", 
        "ind": "192"
    }, 
    {
        "data": " {cost -> 20997.9098414053, time-> 09:06:03.8627410} ", 
        "ind": "193"
    }, 
    {
        "data": " {cost -> 19616.8343967868, time-> 09:06:03.9510570} ", 
        "ind": "194"
    }, 
    {
        "data": " {cost -> 7002.36435249597, time-> 09:06:04.1354370} ", 
        "ind": "195"
    }, 
    {
        "data": " {cost -> 44884.658123781, time-> 09:06:04.2450440} ", 
        "ind": "196"
    }, 
    {
        "data": " {cost -> 15683.338423936, time-> 09:06:04.4810730} ", 
        "ind": "197"
    }, 
    {
        "data": " {cost -> 12921.8837185593, time-> 09:06:04.6000880} ", 
        "ind": "198"
    }, 
    {
        "data": " {cost -> 11227.8134969285, time-> 09:06:04.7708730} ", 
        "ind": "199"
    }, 
    {
        "data": " {cost -> 8926.48027371516, time-> 09:06:04.8714410} ", 
        "ind": "200"
    }, 
    {
        "data": " {cost -> 14785.8806450257, time-> 09:06:05.0565210} ", 
        "ind": "201"
    }, 
    {
        "data": " {cost -> 19639.9761939709, time-> 09:06:05.2058180} ", 
        "ind": "202"
    }, 
    {
        "data": " {cost -> 14698.558174359, time-> 09:06:05.4353840} ", 
        "ind": "203"
    }, 
    {
        "data": " {cost -> 19259.3864405291, time-> 09:06:05.5420580} ", 
        "ind": "204"
    }, 
    {
        "data": " {cost -> 9468.44367867595, time-> 09:06:05.6850760} ", 
        "ind": "205"
    }, 
    {
        "data": " {cost -> 18604.4443873551, time-> 09:06:05.8428450} ", 
        "ind": "206"
    }, 
    {
        "data": " {cost -> 15500.3047474094, time-> 09:06:06.0290260} ", 
        "ind": "207"
    }, 
    {
        "data": " {cost -> 17332.9398905707, time-> 09:06:06.2192900} ", 
        "ind": "208"
    }, 
    {
        "data": " {cost -> 7239.14037780864, time-> 09:06:06.3540320} ", 
        "ind": "209"
    }, 
    {
        "data": " {cost -> 14516.3920325743, time-> 09:06:06.6017520} ", 
        "ind": "210"
    }, 
    {
        "data": " {cost -> 9675.6326704823, time-> 09:06:06.7761420} ", 
        "ind": "211"
    }, 
    {
        "data": " {cost -> 10847.4439460707, time-> 09:06:06.9039760} ", 
        "ind": "212"
    }, 
    {
        "data": " {cost -> 14508.5297266469, time-> 09:06:07.1626680} ", 
        "ind": "213"
    }, 
    {
        "data": " {cost -> 7973.17003940863, time-> 09:06:07.3234030} ", 
        "ind": "214"
    }, 
    {
        "data": " {cost -> 21361.142095318, time-> 09:06:07.5067710} ", 
        "ind": "215"
    }, 
    {
        "data": " {cost -> 10661.7566443707, time-> 09:06:07.7222760} ", 
        "ind": "216"
    }, 
    {
        "data": " {cost -> 19588.2326704005, time-> 09:06:07.8173580} ", 
        "ind": "217"
    }, 
    {
        "data": " {cost -> 9643.76620318178, time-> 09:06:07.9491470} ", 
        "ind": "218"
    }, 
    {
        "data": " {cost -> 4062.86424609958, time-> 09:06:08.1095230} ", 
        "ind": "219"
    }, 
    {
        "data": " {cost -> 14391.9716909952, time-> 09:06:08.2178920} ", 
        "ind": "220"
    }, 
    {
        "data": " {cost -> 12475.0107637035, time-> 09:06:08.3311100} ", 
        "ind": "221"
    }, 
    {
        "data": " {cost -> 11480.9837600554, time-> 09:06:08.5010980} ", 
        "ind": "222"
    }, 
    {
        "data": " {cost -> 5711.48914986551, time-> 09:06:08.6644990} ", 
        "ind": "223"
    }, 
    {
        "data": " {cost -> 12461.4512001959, time-> 09:06:08.7859040} ", 
        "ind": "224"
    }, 
    {
        "data": " {cost -> 8996.07161852187, time-> 09:06:08.8975190} ", 
        "ind": "225"
    }, 
    {
        "data": " {cost -> 8371.85408442305, time-> 09:06:09.0924070} ", 
        "ind": "226"
    }, 
    {
        "data": " {cost -> 7595.90382063971, time-> 09:06:09.2721040} ", 
        "ind": "227"
    }, 
    {
        "data": " {cost -> 14222.4981772582, time-> 09:06:09.3912890} ", 
        "ind": "228"
    }, 
    {
        "data": " {cost -> 20291.8753604499, time-> 09:06:09.5766150} ", 
        "ind": "229"
    }, 
    {
        "data": " {cost -> 16125.8950773666, time-> 09:06:09.8221510} ", 
        "ind": "230"
    }, 
    {
        "data": " {cost -> 8031.3174086552, time-> 09:06:10.1061320} ", 
        "ind": "231"
    }, 
    {
        "data": " {cost -> 21687.3553277589, time-> 09:06:10.2439890} ", 
        "ind": "232"
    }, 
    {
        "data": " {cost -> 21218.9294903088, time-> 09:06:10.5299470} ", 
        "ind": "233"
    }, 
    {
        "data": " {cost -> 7282.73115293364, time-> 09:06:10.6391680} ", 
        "ind": "234"
    }, 
    {
        "data": " {cost -> 25533.8556454027, time-> 09:06:10.8533120} ", 
        "ind": "235"
    }, 
    {
        "data": " {cost -> 8153.19448688736, time-> 09:06:11.0892090} ", 
        "ind": "236"
    }, 
    {
        "data": " {cost -> 17698.1805325679, time-> 09:06:11.2386130} ", 
        "ind": "237"
    }, 
    {
        "data": " {cost -> 6829.59126801592, time-> 09:06:11.4201180} ", 
        "ind": "238"
    }, 
    {
        "data": " {cost -> 15922.8042975859, time-> 09:06:11.6778140} ", 
        "ind": "239"
    }, 
    {
        "data": " {cost -> 47315.9840174563, time-> 09:06:11.7856490} ", 
        "ind": "240"
    }, 
    {
        "data": " {cost -> 11426.926473127, time-> 09:06:11.8853120} ", 
        "ind": "241"
    }, 
    {
        "data": " {cost -> 8293.20145209961, time-> 09:06:12.1158750} ", 
        "ind": "242"
    }, 
    {
        "data": " {cost -> 25601.9797596673, time-> 09:06:12.2876580} ", 
        "ind": "243"
    }, 
    {
        "data": " {cost -> 18138.6870777773, time-> 09:06:12.4797870} ", 
        "ind": "244"
    }, 
    {
        "data": " {cost -> 50267.2105791665, time-> 09:06:12.7896580} ", 
        "ind": "245"
    }, 
    {
        "data": " {cost -> 13609.9299742125, time-> 09:06:12.9007170} ", 
        "ind": "246"
    }, 
    {
        "data": " {cost -> 12144.1882571069, time-> 09:06:13.0641760} ", 
        "ind": "247"
    }, 
    {
        "data": " {cost -> 22866.2232286093, time-> 09:06:13.1752940} ", 
        "ind": "248"
    }, 
    {
        "data": " {cost -> 6579.19423960502, time-> 09:06:13.3441420} ", 
        "ind": "249"
    }, 
    {
        "data": " {cost -> 15222.7645344732, time-> 09:06:13.7374960} ", 
        "ind": "250"
    }, 
    {
        "data": " {cost -> 10034.8273328708, time-> 09:06:14.0271480} ", 
        "ind": "251"
    }, 
    {
        "data": " {cost -> 14436.6943748663, time-> 09:06:14.1361760} ", 
        "ind": "252"
    }, 
    {
        "data": " {cost -> 19045.7528815274, time-> 09:06:14.3051390} ", 
        "ind": "253"
    }, 
    {
        "data": " {cost -> 12578.7814490016, time-> 09:06:14.5034980} ", 
        "ind": "254"
    }, 
    {
        "data": " {cost -> 62143.4653951099, time-> 09:06:14.5942230} ", 
        "ind": "255"
    }, 
    {
        "data": " {cost -> 13792.0985751175, time-> 09:06:14.7686050} ", 
        "ind": "256"
    }, 
    {
        "data": " {cost -> 11924.3281406677, time-> 09:06:14.9072590} ", 
        "ind": "257"
    }, 
    {
        "data": " {cost -> 10419.7615525588, time-> 09:06:15.1954770} ", 
        "ind": "258"
    }, 
    {
        "data": " {cost -> 14662.4047511916, time-> 09:06:15.3760400} ", 
        "ind": "259"
    }, 
    {
        "data": " {cost -> 6899.46574684058, time-> 09:06:15.5740000} ", 
        "ind": "260"
    }, 
    {
        "data": " {cost -> 18354.3401983154, time-> 09:06:15.8658300} ", 
        "ind": "261"
    }, 
    {
        "data": " {cost -> 4201.49615056911, time-> 09:06:16.0301350} ", 
        "ind": "262"
    }, 
    {
        "data": " {cost -> 6896.50362300792, time-> 09:06:16.2005880} ", 
        "ind": "263"
    }, 
    {
        "data": " {cost -> 6431.4334032481, time-> 09:06:16.5049770} ", 
        "ind": "264"
    }, 
    {
        "data": " {cost -> 17192.9015336727, time-> 09:06:16.5794660} ", 
        "ind": "265"
    }, 
    {
        "data": " {cost -> 5666.43994081789, time-> 09:06:16.7355310} ", 
        "ind": "266"
    }, 
    {
        "data": " {cost -> 9783.74995440766, time-> 09:06:16.9847790} ", 
        "ind": "267"
    }, 
    {
        "data": " {cost -> 18168.7185366689, time-> 09:06:17.1205390} ", 
        "ind": "268"
    }, 
    {
        "data": " {cost -> 6332.27160035791, time-> 09:06:17.2044350} ", 
        "ind": "269"
    }, 
    {
        "data": " {cost -> 14417.4492138357, time-> 09:06:17.3939150} ", 
        "ind": "270"
    }, 
    {
        "data": " {cost -> 14372.5471921211, time-> 09:06:17.5734230} ", 
        "ind": "271"
    }, 
    {
        "data": " {cost -> 6244.01100214075, time-> 09:06:17.7366800} ", 
        "ind": "272"
    }, 
    {
        "data": " {cost -> 12425.042545521, time-> 09:06:17.8168020} ", 
        "ind": "273"
    }, 
    {
        "data": " {cost -> 12339.2354236368, time-> 09:06:18.0190280} ", 
        "ind": "274"
    }, 
    {
        "data": " {cost -> 5639.07248116633, time-> 09:06:18.2003990} ", 
        "ind": "275"
    }, 
    {
        "data": " {cost -> 9913.18429371572, time-> 09:06:18.3667810} ", 
        "ind": "276"
    }, 
    {
        "data": " {cost -> 16205.3405537368, time-> 09:06:18.4489460} ", 
        "ind": "277"
    }, 
    {
        "data": " {cost -> 7595.52384534549, time-> 09:06:18.6731770} ", 
        "ind": "278"
    }, 
    {
        "data": " {cost -> 5750.88719270622, time-> 09:06:18.8641680} ", 
        "ind": "279"
    }, 
    {
        "data": " {cost -> 7721.65213177813, time-> 09:06:19.0543700} ", 
        "ind": "280"
    }, 
    {
        "data": " {cost -> 13121.3283402358, time-> 09:06:19.1747200} ", 
        "ind": "281"
    }, 
    {
        "data": " {cost -> 9769.31635824063, time-> 09:06:19.4826440} ", 
        "ind": "282"
    }, 
    {
        "data": " {cost -> 21427.3581713452, time-> 09:06:19.6656070} ", 
        "ind": "283"
    }, 
    {
        "data": " {cost -> 17358.8370054458, time-> 09:06:19.8253090} ", 
        "ind": "284"
    }, 
    {
        "data": " {cost -> 6924.1038697389, time-> 09:06:20.0814670} ", 
        "ind": "285"
    }, 
    {
        "data": " {cost -> 11739.3434479492, time-> 09:06:20.2381460} ", 
        "ind": "286"
    }, 
    {
        "data": " {cost -> 24520.4212640675, time-> 09:06:20.3623720} ", 
        "ind": "287"
    }, 
    {
        "data": " {cost -> 14281.5110262039, time-> 09:06:20.5866300} ", 
        "ind": "288"
    }, 
    {
        "data": " {cost -> 20813.410119737, time-> 09:06:20.7624450} ", 
        "ind": "289"
    }, 
    {
        "data": " {cost -> 7980.53721069052, time-> 09:06:20.9435310} ", 
        "ind": "290"
    }, 
    {
        "data": " {cost -> 21885.8094942274, time-> 09:06:21.2393330} ", 
        "ind": "291"
    }, 
    {
        "data": " {cost -> 6942.4158996517, time-> 09:06:21.3392460} ", 
        "ind": "292"
    }, 
    {
        "data": " {cost -> 12135.0334398582, time-> 09:06:21.4413540} ", 
        "ind": "293"
    }, 
    {
        "data": " {cost -> 8478.64787475552, time-> 09:06:21.7826060} ", 
        "ind": "294"
    }, 
    {
        "data": " {cost -> 20520.9474818971, time-> 09:06:21.9428830} ", 
        "ind": "295"
    }, 
    {
        "data": " {cost -> 22556.5297096673, time-> 09:06:22.0577880} ", 
        "ind": "296"
    }, 
    {
        "data": " {cost -> 23825.9793991795, time-> 09:06:22.3681300} ", 
        "ind": "297"
    }, 
    {
        "data": " {cost -> 6768.04412415463, time-> 09:06:22.5625080} ", 
        "ind": "298"
    }, 
    {
        "data": " {cost -> 9537.92907846944, time-> 09:06:22.6487480} ", 
        "ind": "299"
    }, 
    {
        "data": " {cost -> 11704.2973678624, time-> 09:06:23.0839620} ", 
        "ind": "300"
    }, 
    {
        "data": " {cost -> 6109.0796303301, time-> 09:06:23.2711720} ", 
        "ind": "301"
    }, 
    {
        "data": " {cost -> 12335.041146995, time-> 09:06:23.4609930} ", 
        "ind": "302"
    }, 
    {
        "data": " {cost -> 7949.69699610815, time-> 09:06:23.5942330} ", 
        "ind": "303"
    }, 
    {
        "data": " {cost -> 10815.1416152028, time-> 09:06:23.8366730} ", 
        "ind": "304"
    }, 
    {
        "data": " {cost -> 9657.16415350093, time-> 09:06:24.1003210} ", 
        "ind": "305"
    }, 
    {
        "data": " {cost -> 6504.13225034789, time-> 09:06:24.2960260} ", 
        "ind": "306"
    }, 
    {
        "data": " {cost -> 7027.45693709065, time-> 09:06:24.5027470} ", 
        "ind": "307"
    }, 
    {
        "data": " {cost -> 18388.8178855978, time-> 09:06:24.6407150} ", 
        "ind": "308"
    }, 
    {
        "data": " {cost -> 11262.6865657395, time-> 09:06:24.7715690} ", 
        "ind": "309"
    }, 
    {
        "data": " {cost -> 7836.21476172005, time-> 09:06:25.0201990} ", 
        "ind": "310"
    }, 
    {
        "data": " {cost -> 6996.53431288361, time-> 09:06:25.1992120} ", 
        "ind": "311"
    }, 
    {
        "data": " {cost -> 15128.8755708542, time-> 09:06:25.2722350} ", 
        "ind": "312"
    }, 
    {
        "data": " {cost -> 6880.31232687361, time-> 09:06:25.5389900} ", 
        "ind": "313"
    }, 
    {
        "data": " {cost -> 9775.35615932998, time-> 09:06:25.7258470} ", 
        "ind": "314"
    }, 
    {
        "data": " {cost -> 13213.6194222711, time-> 09:06:25.8813060} ", 
        "ind": "315"
    }, 
    {
        "data": " {cost -> 11309.5822744063, time-> 09:06:26.1136670} ", 
        "ind": "316"
    }, 
    {
        "data": " {cost -> 15608.9045915042, time-> 09:06:26.2455460} ", 
        "ind": "317"
    }, 
    {
        "data": " {cost -> 9112.10900604819, time-> 09:06:26.3059500} ", 
        "ind": "318"
    }, 
    {
        "data": " {cost -> 7258.69608249582, time-> 09:06:26.5805120} ", 
        "ind": "319"
    }, 
    {
        "data": " {cost -> 9892.65754683122, time-> 09:06:26.6488900} ", 
        "ind": "320"
    }, 
    {
        "data": " {cost -> 11837.3966566282, time-> 09:06:26.7346090} ", 
        "ind": "321"
    }, 
    {
        "data": " {cost -> 4735.96975651461, time-> 09:06:26.8251820} ", 
        "ind": "322"
    }, 
    {
        "data": " {cost -> 10270.5600412826, time-> 09:06:26.9936560} ", 
        "ind": "323"
    }, 
    {
        "data": " {cost -> 10866.2767993557, time-> 09:06:27.2331380} ", 
        "ind": "324"
    }, 
    {
        "data": " {cost -> 7686.2471811057, time-> 09:06:27.4162630} ", 
        "ind": "325"
    }, 
    {
        "data": " {cost -> 11752.942661173, time-> 09:06:27.5725340} ", 
        "ind": "326"
    }, 
    {
        "data": " {cost -> 6603.1900667526, time-> 09:06:27.8625310} ", 
        "ind": "327"
    }, 
    {
        "data": " {cost -> 5615.21111216792, time-> 09:06:28.0671150} ", 
        "ind": "328"
    }, 
    {
        "data": " {cost -> 9905.81466472376, time-> 09:06:28.1426310} ", 
        "ind": "329"
    }, 
    {
        "data": " {cost -> 9284.78378497858, time-> 09:06:28.8318610} ", 
        "ind": "330"
    }, 
    {
        "data": " {cost -> 5699.58940146319, time-> 09:06:29.1094770} ", 
        "ind": "331"
    }, 
    {
        "data": " {cost -> 7551.90767040284, time-> 09:06:29.2326670} ", 
        "ind": "332"
    }, 
    {
        "data": " {cost -> 14454.1392169514, time-> 09:06:29.4064440} ", 
        "ind": "333"
    }, 
    {
        "data": " {cost -> 8444.60182334063, time-> 09:06:29.6058600} ", 
        "ind": "334"
    }, 
    {
        "data": " {cost -> 4871.68993963584, time-> 09:06:29.8717190} ", 
        "ind": "335"
    }, 
    {
        "data": " {cost -> 11544.0744210034, time-> 09:06:30.0412470} ", 
        "ind": "336"
    }, 
    {
        "data": " {cost -> 10810.1135836079, time-> 09:06:30.1930430} ", 
        "ind": "337"
    }, 
    {
        "data": " {cost -> 11724.3066496578, time-> 09:06:30.4517200} ", 
        "ind": "338"
    }, 
    {
        "data": " {cost -> 11432.5532083119, time-> 09:06:30.5905100} ", 
        "ind": "339"
    }, 
    {
        "data": " {cost -> 5806.01697444657, time-> 09:06:30.7490110} ", 
        "ind": "340"
    }, 
    {
        "data": " {cost -> 5873.27500946641, time-> 09:06:30.9562960} ", 
        "ind": "341"
    }, 
    {
        "data": " {cost -> 9914.12525449619, time-> 09:06:31.1133820} ", 
        "ind": "342"
    }, 
    {
        "data": " {cost -> 8450.26368624067, time-> 09:06:31.2929500} ", 
        "ind": "343"
    }, 
    {
        "data": " {cost -> 12113.6462645067, time-> 09:06:31.5315930} ", 
        "ind": "344"
    }, 
    {
        "data": " {cost -> 15956.2971964217, time-> 09:06:31.6975960} ", 
        "ind": "345"
    }, 
    {
        "data": " {cost -> 6273.51761963523, time-> 09:06:31.8603870} ", 
        "ind": "346"
    }, 
    {
        "data": " {cost -> 7084.69460861381, time-> 09:06:32.0842240} ", 
        "ind": "347"
    }, 
    {
        "data": " {cost -> 10170.2729817061, time-> 09:06:32.2446730} ", 
        "ind": "348"
    }, 
    {
        "data": " {cost -> 6398.39574565088, time-> 09:06:32.4106220} ", 
        "ind": "349"
    }, 
    {
        "data": " {cost -> 6679.77086526697, time-> 09:06:32.7119410} ", 
        "ind": "350"
    }, 
    {
        "data": " {cost -> 7795.2236988709, time-> 09:06:32.8760610} ", 
        "ind": "351"
    }, 
    {
        "data": " {cost -> 7932.29188773062, time-> 09:06:33.0497000} ", 
        "ind": "352"
    }, 
    {
        "data": " {cost -> 8988.37272233447, time-> 09:06:33.2345900} ", 
        "ind": "353"
    }, 
    {
        "data": " {cost -> 5070.12990740061, time-> 09:06:33.3977000} ", 
        "ind": "354"
    }, 
    {
        "data": " {cost -> 9997.85830626521, time-> 09:06:33.4653720} ", 
        "ind": "355"
    }, 
    {
        "data": " {cost -> 8838.3551754675, time-> 09:06:33.7237100} ", 
        "ind": "356"
    }, 
    {
        "data": " {cost -> 8254.53174310301, time-> 09:06:33.7857000} ", 
        "ind": "357"
    }, 
    {
        "data": " {cost -> 5985.24726587903, time-> 09:06:33.9200180} ", 
        "ind": "358"
    }, 
    {
        "data": " {cost -> 4809.2976415716, time-> 09:06:34.0770270} ", 
        "ind": "359"
    }, 
    {
        "data": " {cost -> 6010.80955681805, time-> 09:06:34.3796660} ", 
        "ind": "360"
    }, 
    {
        "data": " {cost -> 9581.31672469003, time-> 09:06:34.4394420} ", 
        "ind": "361"
    }, 
    {
        "data": " {cost -> 8681.38728444573, time-> 09:06:34.6770220} ", 
        "ind": "362"
    }, 
    {
        "data": " {cost -> 5228.31741119449, time-> 09:06:34.9426260} ", 
        "ind": "363"
    }, 
    {
        "data": " {cost -> 10760.773322956, time-> 09:06:35.1067140} ", 
        "ind": "364"
    }, 
    {
        "data": " {cost -> 9534.97217286283, time-> 09:06:35.4510990} ", 
        "ind": "365"
    }, 
    {
        "data": " {cost -> 9361.72321680157, time-> 09:06:35.5741930} ", 
        "ind": "366"
    }, 
    {
        "data": " {cost -> 5768.11995149479, time-> 09:06:35.7427630} ", 
        "ind": "367"
    }, 
    {
        "data": " {cost -> 7779.66627709376, time-> 09:06:35.8187830} ", 
        "ind": "368"
    }, 
    {
        "data": " {cost -> 10151.3648585811, time-> 09:06:36.0054160} ", 
        "ind": "369"
    }, 
    {
        "data": " {cost -> 6979.78186427994, time-> 09:06:36.0733790} ", 
        "ind": "370"
    }, 
    {
        "data": " {cost -> 9064.51582896128, time-> 09:06:36.3613650} ", 
        "ind": "371"
    }, 
    {
        "data": " {cost -> 6487.08638573224, time-> 09:06:36.4580260} ", 
        "ind": "372"
    }, 
    {
        "data": " {cost -> 5365.76772961512, time-> 09:06:36.5869560} ", 
        "ind": "373"
    }, 
    {
        "data": " {cost -> 8618.08694637315, time-> 09:06:36.7937270} ", 
        "ind": "374"
    }, 
    {
        "data": " {cost -> 5937.98527476551, time-> 09:06:36.9900630} ", 
        "ind": "375"
    }, 
    {
        "data": " {cost -> 4843.71640969909, time-> 09:06:37.1698110} ", 
        "ind": "376"
    }, 
    {
        "data": " {cost -> 6417.17147588645, time-> 09:06:37.2830660} ", 
        "ind": "377"
    }, 
    {
        "data": " {cost -> 7995.61074260443, time-> 09:06:37.5391100} ", 
        "ind": "378"
    }, 
    {
        "data": " {cost -> 7982.0968141744, time-> 09:06:37.6884400} ", 
        "ind": "379"
    }, 
    {
        "data": " {cost -> 6206.75476541744, time-> 09:06:37.9182980} ", 
        "ind": "380"
    }, 
    {
        "data": " {cost -> 5934.73315903827, time-> 09:06:38.3127290} ", 
        "ind": "381"
    }, 
    {
        "data": " {cost -> 6919.33389476431, time-> 09:06:38.4283260} ", 
        "ind": "382"
    }, 
    {
        "data": " {cost -> 11269.317410656, time-> 09:06:38.7627140} ", 
        "ind": "383"
    }, 
    {
        "data": " {cost -> 8738.4014406233, time-> 09:06:39.0035860} ", 
        "ind": "384"
    }, 
    {
        "data": " {cost -> 11751.1038449099, time-> 09:06:39.1232790} ", 
        "ind": "385"
    }, 
    {
        "data": " {cost -> 6009.07928926382, time-> 09:06:39.3484610} ", 
        "ind": "386"
    }, 
    {
        "data": " {cost -> 5128.53397611249, time-> 09:06:39.5700010} ", 
        "ind": "387"
    }, 
    {
        "data": " {cost -> 11175.4980548191, time-> 09:06:39.7225350} ", 
        "ind": "388"
    }, 
    {
        "data": " {cost -> 9061.04267919725, time-> 09:06:40.0407010} ", 
        "ind": "389"
    }, 
    {
        "data": " {cost -> 5991.78457622613, time-> 09:06:40.1319700} ", 
        "ind": "390"
    }, 
    {
        "data": " {cost -> 6676.39171481513, time-> 09:06:40.3059820} ", 
        "ind": "391"
    }, 
    {
        "data": " {cost -> 9289.46960618499, time-> 09:06:40.5607240} ", 
        "ind": "392"
    }, 
    {
        "data": " {cost -> 8477.67556175132, time-> 09:06:40.7145650} ", 
        "ind": "393"
    }, 
    {
        "data": " {cost -> 7834.80558016672, time-> 09:06:40.8833150} ", 
        "ind": "394"
    }, 
    {
        "data": " {cost -> 7403.25334198772, time-> 09:06:41.0621990} ", 
        "ind": "395"
    }, 
    {
        "data": " {cost -> 7203.17687600121, time-> 09:06:41.2029020} ", 
        "ind": "396"
    }, 
    {
        "data": " {cost -> 6269.17047291773, time-> 09:06:41.2877020} ", 
        "ind": "397"
    }, 
    {
        "data": " {cost -> 9246.08834975315, time-> 09:06:41.4134110} ", 
        "ind": "398"
    }, 
    {
        "data": " {cost -> 4922.60131787172, time-> 09:06:41.6673770} ", 
        "ind": "399"
    }, 
    {
        "data": " {cost -> 4220.19182768956, time-> 09:06:41.7925890} ", 
        "ind": "400"
    }, 
    {
        "data": " {cost -> 5040.80452313861, time-> 09:06:42.0267750} ", 
        "ind": "401"
    }, 
    {
        "data": " {cost -> 6222.44349980007, time-> 09:06:42.2356000} ", 
        "ind": "402"
    }, 
    {
        "data": " {cost -> 6885.01455253694, time-> 09:06:42.4486610} ", 
        "ind": "403"
    }, 
    {
        "data": " {cost -> 5866.49495188096, time-> 09:06:42.6563610} ", 
        "ind": "404"
    }, 
    {
        "data": " {cost -> 5345.15674803939, time-> 09:06:43.0169280} ", 
        "ind": "405"
    }, 
    {
        "data": " {cost -> 6840.49099351619, time-> 09:06:43.1828660} ", 
        "ind": "406"
    }, 
    {
        "data": " {cost -> 5617.35315126423, time-> 09:06:43.4235640} ", 
        "ind": "407"
    }, 
    {
        "data": " {cost -> 4882.71188968593, time-> 09:06:43.6061600} ", 
        "ind": "408"
    }, 
    {
        "data": " {cost -> 5766.07046082556, time-> 09:06:43.8260290} ", 
        "ind": "409"
    }, 
    {
        "data": " {cost -> 6293.28937560474, time-> 09:06:43.9788590} ", 
        "ind": "410"
    }, 
    {
        "data": " {cost -> 7732.53517341222, time-> 09:06:44.1462750} ", 
        "ind": "411"
    }, 
    {
        "data": " {cost -> 6148.21435530962, time-> 09:06:44.4342840} ", 
        "ind": "412"
    }, 
    {
        "data": " {cost -> 7555.72429617257, time-> 09:06:44.6449070} ", 
        "ind": "413"
    }, 
    {
        "data": " {cost -> 5255.57853553804, time-> 09:06:44.7419460} ", 
        "ind": "414"
    }, 
    {
        "data": " {cost -> 6385.7619023922, time-> 09:06:44.8578890} ", 
        "ind": "415"
    }, 
    {
        "data": " {cost -> 4609.97358770925, time-> 09:06:45.1400500} ", 
        "ind": "416"
    }, 
    {
        "data": " {cost -> 7554.68869029319, time-> 09:06:45.3636620} ", 
        "ind": "417"
    }, 
    {
        "data": " {cost -> 7271.30997719277, time-> 09:06:45.5524010} ", 
        "ind": "418"
    }, 
    {
        "data": " {cost -> 6582.0520622792, time-> 09:06:45.8127540} ", 
        "ind": "419"
    }, 
    {
        "data": " {cost -> 5553.42181280806, time-> 09:06:45.9403640} ", 
        "ind": "420"
    }, 
    {
        "data": " {cost -> 7594.71152271262, time-> 09:06:46.1995750} ", 
        "ind": "421"
    }, 
    {
        "data": " {cost -> 6396.11106372618, time-> 09:06:46.4708180} ", 
        "ind": "422"
    }, 
    {
        "data": " {cost -> 8500.6809166396, time-> 09:06:46.5860580} ", 
        "ind": "423"
    }, 
    {
        "data": " {cost -> 7309.59510580992, time-> 09:06:46.8766910} ", 
        "ind": "424"
    }, 
    {
        "data": " {cost -> 4878.34692673956, time-> 09:06:46.9989010} ", 
        "ind": "425"
    }, 
    {
        "data": " {cost -> 6025.27485909591, time-> 09:06:47.2118770} ", 
        "ind": "426"
    }, 
    {
        "data": " {cost -> 7105.35317856992, time-> 09:06:47.4492970} ", 
        "ind": "427"
    }, 
    {
        "data": " {cost -> 8070.68898090876, time-> 09:06:47.6795630} ", 
        "ind": "428"
    }, 
    {
        "data": " {cost -> 8955.40856259758, time-> 09:06:47.7587860} ", 
        "ind": "429"
    }, 
    {
        "data": " {cost -> 5547.01504666743, time-> 09:06:48.0482630} ", 
        "ind": "430"
    }, 
    {
        "data": " {cost -> 6883.739026865, time-> 09:06:48.2020230} ", 
        "ind": "431"
    }, 
    {
        "data": " {cost -> 9526.57187196851, time-> 09:06:48.3038770} ", 
        "ind": "432"
    }, 
    {
        "data": " {cost -> 7440.6349642641, time-> 09:06:48.6548290} ", 
        "ind": "433"
    }, 
    {
        "data": " {cost -> 4729.22655723759, time-> 09:06:48.8080270} ", 
        "ind": "434"
    }, 
    {
        "data": " {cost -> 5626.45334456635, time-> 09:06:48.9549600} ", 
        "ind": "435"
    }, 
    {
        "data": " {cost -> 6648.77617871393, time-> 09:06:49.1692900} ", 
        "ind": "436"
    }, 
    {
        "data": " {cost -> 5642.64414731362, time-> 09:06:49.3632620} ", 
        "ind": "437"
    }, 
    {
        "data": " {cost -> 6133.58939038932, time-> 09:06:49.5648740} ", 
        "ind": "438"
    }, 
    {
        "data": " {cost -> 7228.39665982758, time-> 09:06:49.7543680} ", 
        "ind": "439"
    }, 
    {
        "data": " {cost -> 6192.01381629904, time-> 09:06:50.0884650} ", 
        "ind": "440"
    }, 
    {
        "data": " {cost -> 7547.43923354803, time-> 09:06:50.2369870} ", 
        "ind": "441"
    }, 
    {
        "data": " {cost -> 7321.01710626922, time-> 09:06:50.5538200} ", 
        "ind": "442"
    }, 
    {
        "data": " {cost -> 5943.1074831046, time-> 09:06:50.6815970} ", 
        "ind": "443"
    }, 
    {
        "data": " {cost -> 5858.69638173725, time-> 09:06:50.7885860} ", 
        "ind": "444"
    }, 
    {
        "data": " {cost -> 8571.8840991393, time-> 09:06:51.0758660} ", 
        "ind": "445"
    }, 
    {
        "data": " {cost -> 7032.41208561905, time-> 09:06:51.2653560} ", 
        "ind": "446"
    }, 
    {
        "data": " {cost -> 8667.6980515451, time-> 09:06:51.4424630} ", 
        "ind": "447"
    }, 
    {
        "data": " {cost -> 5463.86554151276, time-> 09:06:51.7133600} ", 
        "ind": "448"
    }, 
    {
        "data": " {cost -> 6883.14165302908, time-> 09:06:51.9093880} ", 
        "ind": "449"
    }, 
    {
        "data": " {cost -> 3607.85631418158, time-> 09:06:52.2535730} ", 
        "ind": "450"
    }, 
    {
        "data": " {cost -> 5145.4192014397, time-> 09:06:52.4982750} ", 
        "ind": "451"
    }, 
    {
        "data": " {cost -> 5789.24822969454, time-> 09:06:52.6361970} ", 
        "ind": "452"
    }, 
    {
        "data": " {cost -> 6807.54880400363, time-> 09:06:52.8868050} ", 
        "ind": "453"
    }, 
    {
        "data": " {cost -> 6152.65894287728, time-> 09:06:53.0242310} ", 
        "ind": "454"
    }, 
    {
        "data": " {cost -> 5766.84727740496, time-> 09:06:53.1767340} ", 
        "ind": "455"
    }, 
    {
        "data": " {cost -> 5461.82976670093, time-> 09:06:53.5293460} ", 
        "ind": "456"
    }, 
    {
        "data": " {cost -> 6081.6322728951, time-> 09:06:53.7285230} ", 
        "ind": "457"
    }, 
    {
        "data": " {cost -> 7133.7793103052, time-> 09:06:53.9568910} ", 
        "ind": "458"
    }, 
    {
        "data": " {cost -> 6886.79145714925, time-> 09:06:54.1162310} ", 
        "ind": "459"
    }, 
    {
        "data": " {cost -> 4543.58307097197, time-> 09:06:54.3324830} ", 
        "ind": "460"
    }, 
    {
        "data": " {cost -> 5083.38969509319, time-> 09:06:54.6255810} ", 
        "ind": "461"
    }, 
    {
        "data": " {cost -> 6375.78259519164, time-> 09:06:54.7807120} ", 
        "ind": "462"
    }, 
    {
        "data": " {cost -> 6274.77931733, time-> 09:06:55.0949140} ", 
        "ind": "463"
    }, 
    {
        "data": " {cost -> 5972.83698844593, time-> 09:06:55.3356200} ", 
        "ind": "464"
    }, 
    {
        "data": " {cost -> 6439.54795887352, time-> 09:06:55.4206850} ", 
        "ind": "465"
    }, 
    {
        "data": " {cost -> 6337.99898237598, time-> 09:06:55.7133110} ", 
        "ind": "466"
    }, 
    {
        "data": " {cost -> 6693.8464747726, time-> 09:06:55.9269990} ", 
        "ind": "467"
    }, 
    {
        "data": " {cost -> 5999.14141209966, time-> 09:06:56.1131630} ", 
        "ind": "468"
    }, 
    {
        "data": " {cost -> 6002.0119984157, time-> 09:06:56.4242610} ", 
        "ind": "469"
    }, 
    {
        "data": " {cost -> 6178.28099206757, time-> 09:06:56.5905100} ", 
        "ind": "470"
    }, 
    {
        "data": " {cost -> 5202.12703886936, time-> 09:06:56.8380010} ", 
        "ind": "471"
    }, 
    {
        "data": " {cost -> 4144.82545591801, time-> 09:06:57.1436370} ", 
        "ind": "472"
    }, 
    {
        "data": " {cost -> 6585.31750283619, time-> 09:06:57.3094980} ", 
        "ind": "473"
    }, 
    {
        "data": " {cost -> 5870.86607078237, time-> 09:06:57.6482960} ", 
        "ind": "474"
    }, 
    {
        "data": " {cost -> 6117.4630421826, time-> 09:06:57.8424590} ", 
        "ind": "475"
    }, 
    {
        "data": " {cost -> 5393.33868814882, time-> 09:06:58.0099030} ", 
        "ind": "476"
    }, 
    {
        "data": " {cost -> 6076.71602053791, time-> 09:06:58.1812230} ", 
        "ind": "477"
    }, 
    {
        "data": " {cost -> 5954.3867052681, time-> 09:06:58.2912790} ", 
        "ind": "478"
    }, 
    {
        "data": " {cost -> 6252.82528637001, time-> 09:06:58.5168020} ", 
        "ind": "479"
    }, 
    {
        "data": " {cost -> 5970.08815361413, time-> 09:06:58.6216460} ", 
        "ind": "480"
    }, 
    {
        "data": " {cost -> 6551.32255643614, time-> 09:06:58.7419370} ", 
        "ind": "481"
    }, 
    {
        "data": " {cost -> 8649.4011750654, time-> 09:06:58.9030640} ", 
        "ind": "482"
    }, 
    {
        "data": " {cost -> 6969.17503592848, time-> 09:06:59.1668400} ", 
        "ind": "483"
    }, 
    {
        "data": " {cost -> 6061.31902118457, time-> 09:06:59.3485300} ", 
        "ind": "484"
    }, 
    {
        "data": " {cost -> 7545.66052876467, time-> 09:06:59.4354320} ", 
        "ind": "485"
    }, 
    {
        "data": " {cost -> 6140.77694710739, time-> 09:06:59.7562530} ", 
        "ind": "486"
    }, 
    {
        "data": " {cost -> 5898.72205038925, time-> 09:06:59.9358060} ", 
        "ind": "487"
    }, 
    {
        "data": " {cost -> 6023.75338340328, time-> 09:07:00.1617200} ", 
        "ind": "488"
    }, 
    {
        "data": " {cost -> 5137.83683128195, time-> 09:07:00.4292110} ", 
        "ind": "489"
    }, 
    {
        "data": " {cost -> 4766.49339363207, time-> 09:07:00.6375980} ", 
        "ind": "490"
    }, 
    {
        "data": " {cost -> 7976.32802702441, time-> 09:07:00.8267770} ", 
        "ind": "491"
    }, 
    {
        "data": " {cost -> 6108.10826098555, time-> 09:07:01.1297540} ", 
        "ind": "492"
    }, 
    {
        "data": " {cost -> 6649.57866677754, time-> 09:07:01.3041400} ", 
        "ind": "493"
    }, 
    {
        "data": " {cost -> 7210.19137468444, time-> 09:07:01.4937120} ", 
        "ind": "494"
    }, 
    {
        "data": " {cost -> 6014.35626202579, time-> 09:07:01.8799850} ", 
        "ind": "495"
    }, 
    {
        "data": " {cost -> 5835.27847234435, time-> 09:07:02.0564040} ", 
        "ind": "496"
    }, 
    {
        "data": " {cost -> 5901.96241096546, time-> 09:07:02.3176180} ", 
        "ind": "497"
    }, 
    {
        "data": " {cost -> 3842.30031851299, time-> 09:07:02.5000630} ", 
        "ind": "498"
    }, 
    {
        "data": " {cost -> 6268.84476124696, time-> 09:07:02.7742970} ", 
        "ind": "499"
    }, 
    {
        "data": " {cost -> 5404.99386726393, time-> 09:07:03.0779810} ", 
        "ind": "500"
    }, 
    {
        "data": " {cost -> 6230.68935610486, time-> 09:07:03.2158190} ", 
        "ind": "501"
    }, 
    {
        "data": " {cost -> 6654.28892974669, time-> 09:07:03.4133880} ", 
        "ind": "502"
    }, 
    {
        "data": " {cost -> 4767.46302204259, time-> 09:07:03.5704660} ", 
        "ind": "503"
    }, 
    {
        "data": " {cost -> 5951.98710634584, time-> 09:07:03.7503750} ", 
        "ind": "504"
    }, 
    {
        "data": " {cost -> 5988.55425783599, time-> 09:07:04.0276460} ", 
        "ind": "505"
    }, 
    {
        "data": " {cost -> 5142.47406958555, time-> 09:07:04.4512760} ", 
        "ind": "506"
    }, 
    {
        "data": " {cost -> 5487.64568281576, time-> 09:07:04.5852510} ", 
        "ind": "507"
    }, 
    {
        "data": " {cost -> 6701.88494117724, time-> 09:07:04.8999960} ", 
        "ind": "508"
    }, 
    {
        "data": " {cost -> 4616.92606452075, time-> 09:07:05.1299530} ", 
        "ind": "509"
    }, 
    {
        "data": " {cost -> 6682.02290979882, time-> 09:07:05.3859550} ", 
        "ind": "510"
    }, 
    {
        "data": " {cost -> 3659.96265887921, time-> 09:07:05.6436500} ", 
        "ind": "511"
    }, 
    {
        "data": " {cost -> 6569.47650261191, time-> 09:07:05.8134450} ", 
        "ind": "512"
    }, 
    {
        "data": " {cost -> 5753.770756617, time-> 09:07:06.1662100} ", 
        "ind": "513"
    }, 
    {
        "data": " {cost -> 6081.75962907768, time-> 09:07:06.2953040} ", 
        "ind": "514"
    }, 
    {
        "data": " {cost -> 4928.72321948728, time-> 09:07:06.5905880} ", 
        "ind": "515"
    }, 
    {
        "data": " {cost -> 4485.58033820348, time-> 09:07:06.7074260} ", 
        "ind": "516"
    }, 
    {
        "data": " {cost -> 5501.81831204804, time-> 09:07:06.9097630} ", 
        "ind": "517"
    }, 
    {
        "data": " {cost -> 4523.19228265308, time-> 09:07:07.2776410} ", 
        "ind": "518"
    }, 
    {
        "data": " {cost -> 4795.88946919924, time-> 09:07:07.4969560} ", 
        "ind": "519"
    }, 
    {
        "data": " {cost -> 5235.05447356375, time-> 09:07:07.7257780} ", 
        "ind": "520"
    }, 
    {
        "data": " {cost -> 6665.67267672399, time-> 09:07:07.9260960} ", 
        "ind": "521"
    }, 
    {
        "data": " {cost -> 4564.73690417878, time-> 09:07:08.2293360} ", 
        "ind": "522"
    }, 
    {
        "data": " {cost -> 4098.29070235889, time-> 09:07:08.4450690} ", 
        "ind": "523"
    }, 
    {
        "data": " {cost -> 4731.1280792332, time-> 09:07:08.7053230} ", 
        "ind": "524"
    }, 
    {
        "data": " {cost -> 5566.61397903467, time-> 09:07:09.0063070} ", 
        "ind": "525"
    }, 
    {
        "data": " {cost -> 6031.17021045821, time-> 09:07:09.0724720} ", 
        "ind": "526"
    }, 
    {
        "data": " {cost -> 6794.86966646403, time-> 09:07:09.2914550} ", 
        "ind": "527"
    }, 
    {
        "data": " {cost -> 5771.28110736892, time-> 09:07:09.4496200} ", 
        "ind": "528"
    }, 
    {
        "data": " {cost -> 5393.86380965683, time-> 09:07:09.6716490} ", 
        "ind": "529"
    }, 
    {
        "data": " {cost -> 6526.96285568863, time-> 09:07:09.9168480} ", 
        "ind": "530"
    }, 
    {
        "data": " {cost -> 5123.60303917166, time-> 09:07:10.1733800} ", 
        "ind": "531"
    }, 
    {
        "data": " {cost -> 6286.83945580784, time-> 09:07:10.4223710} ", 
        "ind": "532"
    }, 
    {
        "data": " {cost -> 5921.97658022991, time-> 09:07:10.7471120} ", 
        "ind": "533"
    }, 
    {
        "data": " {cost -> 5296.59209968543, time-> 09:07:10.9679240} ", 
        "ind": "534"
    }, 
    {
        "data": " {cost -> 6271.78647699881, time-> 09:07:11.3698670} ", 
        "ind": "535"
    }, 
    {
        "data": " {cost -> 5375.00238634505, time-> 09:07:11.5117040} ", 
        "ind": "536"
    }, 
    {
        "data": " {cost -> 5834.71950722957, time-> 09:07:11.8910220} ", 
        "ind": "537"
    }, 
    {
        "data": " {cost -> 5916.22121330651, time-> 09:07:12.1051850} ", 
        "ind": "538"
    }, 
    {
        "data": " {cost -> 5194.30466958305, time-> 09:07:12.3966530} ", 
        "ind": "539"
    }, 
    {
        "data": " {cost -> 5067.73479028053, time-> 09:07:12.5349820} ", 
        "ind": "540"
    }, 
    {
        "data": " {cost -> 6180.30424173976, time-> 09:07:12.9092230} ", 
        "ind": "541"
    }, 
    {
        "data": " {cost -> 4537.77601608795, time-> 09:07:13.0504760} ", 
        "ind": "542"
    }, 
    {
        "data": " {cost -> 6059.31785673118, time-> 09:07:13.3855460} ", 
        "ind": "543"
    }, 
    {
        "data": " {cost -> 6590.86947388738, time-> 09:07:13.5816380} ", 
        "ind": "544"
    }, 
    {
        "data": " {cost -> 4443.55763957871, time-> 09:07:13.8018770} ", 
        "ind": "545"
    }, 
    {
        "data": " {cost -> 5695.37663360813, time-> 09:07:14.0957320} ", 
        "ind": "546"
    }, 
    {
        "data": " {cost -> 6225.28709769668, time-> 09:07:14.3314540} ", 
        "ind": "547"
    }, 
    {
        "data": " {cost -> 5326.48360773983, time-> 09:07:14.5835830} ", 
        "ind": "548"
    }, 
    {
        "data": " {cost -> 5036.29033250064, time-> 09:07:14.8844370} ", 
        "ind": "549"
    }, 
    {
        "data": " {cost -> 6230.49550287606, time-> 09:07:15.1233660} ", 
        "ind": "550"
    }, 
    {
        "data": " {cost -> 7806.12966659359, time-> 09:07:15.4361320} ", 
        "ind": "551"
    }, 
    {
        "data": " {cost -> 4832.08223598965, time-> 09:07:15.7503810} ", 
        "ind": "552"
    }, 
    {
        "data": " {cost -> 5707.66036091902, time-> 09:07:16.1014710} ", 
        "ind": "553"
    }, 
    {
        "data": " {cost -> 5707.48104560521, time-> 09:07:16.4364670} ", 
        "ind": "554"
    }, 
    {
        "data": " {cost -> 3822.86309007634, time-> 09:07:16.7978260} ", 
        "ind": "555"
    }, 
    {
        "data": " {cost -> 5262.21851466827, time-> 09:07:16.8972540} ", 
        "ind": "556"
    }, 
    {
        "data": " {cost -> 4911.23506867967, time-> 09:07:17.2074000} ", 
        "ind": "557"
    }, 
    {
        "data": " {cost -> 4807.94856485028, time-> 09:07:17.4138850} ", 
        "ind": "558"
    }, 
    {
        "data": " {cost -> 6110.79488222579, time-> 09:07:17.6122440} ", 
        "ind": "559"
    }, 
    {
        "data": " {cost -> 6049.2411540886, time-> 09:07:17.8172030} ", 
        "ind": "560"
    }, 
    {
        "data": " {cost -> 5854.40226852438, time-> 09:07:18.0310060} ", 
        "ind": "561"
    }, 
    {
        "data": " {cost -> 5008.8514644764, time-> 09:07:18.3061400} ", 
        "ind": "562"
    }, 
    {
        "data": " {cost -> 5502.15940667909, time-> 09:07:18.6635870} ", 
        "ind": "563"
    }, 
    {
        "data": " {cost -> 5921.14807394412, time-> 09:07:18.8756980} ", 
        "ind": "564"
    }, 
    {
        "data": " {cost -> 7294.65282543084, time-> 09:07:19.1993550} ", 
        "ind": "565"
    }, 
    {
        "data": " {cost -> 6054.58152168542, time-> 09:07:19.2886060} ", 
        "ind": "566"
    }, 
    {
        "data": " {cost -> 6842.68270918676, time-> 09:07:19.4667590} ", 
        "ind": "567"
    }, 
    {
        "data": " {cost -> 3888.83246113236, time-> 09:07:19.7202050} ", 
        "ind": "568"
    }, 
    {
        "data": " {cost -> 5689.60551334217, time-> 09:07:19.9712610} ", 
        "ind": "569"
    }, 
    {
        "data": " {cost -> 6231.22326642086, time-> 09:07:20.2401520} ", 
        "ind": "570"
    }, 
    {
        "data": " {cost -> 5995.26245834269, time-> 09:07:20.5057340} ", 
        "ind": "571"
    }, 
    {
        "data": " {cost -> 5944.11688813936, time-> 09:07:20.8957700} ", 
        "ind": "572"
    }, 
    {
        "data": " {cost -> 4909.73448663262, time-> 09:07:21.0655510} ", 
        "ind": "573"
    }, 
    {
        "data": " {cost -> 4347.06694275453, time-> 09:07:21.3734570} ", 
        "ind": "574"
    }, 
    {
        "data": " {cost -> 6010.57378145489, time-> 09:07:21.6610540} ", 
        "ind": "575"
    }, 
    {
        "data": " {cost -> 6376.64821853176, time-> 09:07:22.0084060} ", 
        "ind": "576"
    }, 
    {
        "data": " {cost -> 5368.61876701094, time-> 09:07:22.3050830} ", 
        "ind": "577"
    }, 
    {
        "data": " {cost -> 5416.62742686247, time-> 09:07:22.6443190} ", 
        "ind": "578"
    }, 
    {
        "data": " {cost -> 5842.99836918043, time-> 09:07:22.7313420} ", 
        "ind": "579"
    }, 
    {
        "data": " {cost -> 6247.68803238426, time-> 09:07:23.0049690} ", 
        "ind": "580"
    }, 
    {
        "data": " {cost -> 6104.6011778503, time-> 09:07:23.0952810} ", 
        "ind": "581"
    }, 
    {
        "data": " {cost -> 6619.33277867479, time-> 09:07:23.2826990} ", 
        "ind": "582"
    }, 
    {
        "data": " {cost -> 5839.80017249387, time-> 09:07:23.5394100} ", 
        "ind": "583"
    }, 
    {
        "data": " {cost -> 5281.93811903388, time-> 09:07:23.8863320} ", 
        "ind": "584"
    }, 
    {
        "data": " {cost -> 5994.37021940393, time-> 09:07:24.0672190} ", 
        "ind": "585"
    }, 
    {
        "data": " {cost -> 5633.22545461583, time-> 09:07:24.2981920} ", 
        "ind": "586"
    }, 
    {
        "data": " {cost -> 5937.92609157073, time-> 09:07:24.4826120} ", 
        "ind": "587"
    }, 
    {
        "data": " {cost -> 4876.06757639505, time-> 09:07:24.6230160} ", 
        "ind": "588"
    }, 
    {
        "data": " {cost -> 6559.21980156097, time-> 09:07:24.8455490} ", 
        "ind": "589"
    }, 
    {
        "data": " {cost -> 6714.02059366984, time-> 09:07:25.0656440} ", 
        "ind": "590"
    }, 
    {
        "data": " {cost -> 4578.62713574157, time-> 09:07:25.1593210} ", 
        "ind": "591"
    }, 
    {
        "data": " {cost -> 6113.10675667596, time-> 09:07:25.4448230} ", 
        "ind": "592"
    }, 
    {
        "data": " {cost -> 4931.53088272162, time-> 09:07:25.5923430} ", 
        "ind": "593"
    }, 
    {
        "data": " {cost -> 5168.13565648918, time-> 09:07:25.8040500} ", 
        "ind": "594"
    }, 
    {
        "data": " {cost -> 7259.82063928361, time-> 09:07:26.0944390} ", 
        "ind": "595"
    }, 
    {
        "data": " {cost -> 6082.89100811911, time-> 09:07:26.3624420} ", 
        "ind": "596"
    }, 
    {
        "data": " {cost -> 4066.61353326357, time-> 09:07:26.6164160} ", 
        "ind": "597"
    }, 
    {
        "data": " {cost -> 5546.9196091642, time-> 09:07:26.7064270} ", 
        "ind": "598"
    }, 
    {
        "data": " {cost -> 4500.74541108448, time-> 09:07:26.9355290} ", 
        "ind": "599"
    }, 
    {
        "data": " {cost -> 5597.16707226187, time-> 09:07:27.1677190} ", 
        "ind": "600"
    }, 
    {
        "data": " {cost -> 3968.2997270475, time-> 09:07:27.2903610} ", 
        "ind": "601"
    }, 
    {
        "data": " {cost -> 4019.07270034534, time-> 09:07:27.3728240} ", 
        "ind": "602"
    }, 
    {
        "data": " {cost -> 4304.85419866443, time-> 09:07:27.6829320} ", 
        "ind": "603"
    }, 
    {
        "data": " {cost -> 5523.60995460473, time-> 09:07:27.7993750} ", 
        "ind": "604"
    }, 
    {
        "data": " {cost -> 5598.68589539357, time-> 09:07:28.0943910} ", 
        "ind": "605"
    }, 
    {
        "data": " {cost -> 5970.63857103794, time-> 09:07:28.9564930} ", 
        "ind": "606"
    }, 
    {
        "data": " {cost -> 5914.00419266228, time-> 09:07:29.2442950} ", 
        "ind": "607"
    }, 
    {
        "data": " {cost -> 6096.76669863629, time-> 09:07:29.5611030} ", 
        "ind": "608"
    }, 
    {
        "data": " {cost -> 5175.02318968286, time-> 09:07:29.9962060} ", 
        "ind": "609"
    }, 
    {
        "data": " {cost -> 6098.2773510178, time-> 09:07:30.0983360} ", 
        "ind": "610"
    }, 
    {
        "data": " {cost -> 4077.39801625222, time-> 09:07:30.4306280} ", 
        "ind": "611"
    }, 
    {
        "data": " {cost -> 6720.04430146566, time-> 09:07:30.5799040} ", 
        "ind": "612"
    }, 
    {
        "data": " {cost -> 4586.2758814091, time-> 09:07:30.7118240} ", 
        "ind": "613"
    }, 
    {
        "data": " {cost -> 5985.72662252831, time-> 09:07:31.0339920} ", 
        "ind": "614"
    }, 
    {
        "data": " {cost -> 5543.8160460166, time-> 09:07:31.2066010} ", 
        "ind": "615"
    }, 
    {
        "data": " {cost -> 6199.33406201865, time-> 09:07:31.3649090} ", 
        "ind": "616"
    }, 
    {
        "data": " {cost -> 4884.90431995383, time-> 09:07:31.6094710} ", 
        "ind": "617"
    }, 
    {
        "data": " {cost -> 4329.78152091622, time-> 09:07:31.8626680} ", 
        "ind": "618"
    }, 
    {
        "data": " {cost -> 5502.12986950617, time-> 09:07:32.0857440} ", 
        "ind": "619"
    }, 
    {
        "data": " {cost -> 5619.50819271584, time-> 09:07:32.4454580} ", 
        "ind": "620"
    }, 
    {
        "data": " {cost -> 5345.62478082754, time-> 09:07:32.5105080} ", 
        "ind": "621"
    }, 
    {
        "data": " {cost -> 4551.18439482003, time-> 09:07:32.7725520} ", 
        "ind": "622"
    }, 
    {
        "data": " {cost -> 6078.02865332571, time-> 09:07:32.9809400} ", 
        "ind": "623"
    }, 
    {
        "data": " {cost -> 5913.66454533625, time-> 09:07:33.0514340} ", 
        "ind": "624"
    }, 
    {
        "data": " {cost -> 5114.67478986237, time-> 09:07:33.3922810} ", 
        "ind": "625"
    }, 
    {
        "data": " {cost -> 5674.84034587023, time-> 09:07:33.6220090} ", 
        "ind": "626"
    }, 
    {
        "data": " {cost -> 5775.66958042677, time-> 09:07:33.7453710} ", 
        "ind": "627"
    }, 
    {
        "data": " {cost -> 4116.16789115085, time-> 09:07:33.9966590} ", 
        "ind": "628"
    }, 
    {
        "data": " {cost -> 4604.07965732638, time-> 09:07:34.1794290} ", 
        "ind": "629"
    }, 
    {
        "data": " {cost -> 6020.11726378275, time-> 09:07:34.4496220} ", 
        "ind": "630"
    }, 
    {
        "data": " {cost -> 4200.88876754029, time-> 09:07:34.7459170} ", 
        "ind": "631"
    }, 
    {
        "data": " {cost -> 6698.70897980375, time-> 09:07:34.8800290} ", 
        "ind": "632"
    }, 
    {
        "data": " {cost -> 6184.92459458819, time-> 09:07:35.1249190} ", 
        "ind": "633"
    }, 
    {
        "data": " {cost -> 4357.3249710282, time-> 09:07:35.3451150} ", 
        "ind": "634"
    }, 
    {
        "data": " {cost -> 6116.71043626597, time-> 09:07:35.5773120} ", 
        "ind": "635"
    }, 
    {
        "data": " {cost -> 5255.70102445687, time-> 09:07:35.9499050} ", 
        "ind": "636"
    }, 
    {
        "data": " {cost -> 5132.52620839719, time-> 09:07:36.1572740} ", 
        "ind": "637"
    }, 
    {
        "data": " {cost -> 4830.59989043764, time-> 09:07:36.4883630} ", 
        "ind": "638"
    }, 
    {
        "data": " {cost -> 6093.3713792447, time-> 09:07:36.7577110} ", 
        "ind": "639"
    }, 
    {
        "data": " {cost -> 4819.14044399383, time-> 09:07:37.0900960} ", 
        "ind": "640"
    }, 
    {
        "data": " {cost -> 3853.88920540717, time-> 09:07:37.1958990} ", 
        "ind": "641"
    }, 
    {
        "data": " {cost -> 4507.45472344375, time-> 09:07:37.5182490} ", 
        "ind": "642"
    }, 
    {
        "data": " {cost -> 4901.93420039006, time-> 09:07:37.8006980} ", 
        "ind": "643"
    }, 
    {
        "data": " {cost -> 4945.73920502017, time-> 09:07:38.0421590} ", 
        "ind": "644"
    }, 
    {
        "data": " {cost -> 5979.57522283296, time-> 09:07:38.4559440} ", 
        "ind": "645"
    }, 
    {
        "data": " {cost -> 4859.64870246585, time-> 09:07:38.5421820} ", 
        "ind": "646"
    }, 
    {
        "data": " {cost -> 4109.75447585708, time-> 09:07:38.9143580} ", 
        "ind": "647"
    }, 
    {
        "data": " {cost -> 5719.18709635269, time-> 09:07:39.0841890} ", 
        "ind": "648"
    }, 
    {
        "data": " {cost -> 5164.58640722511, time-> 09:07:39.3525530} ", 
        "ind": "649"
    }, 
    {
        "data": " {cost -> 4479.12763473888, time-> 09:07:39.6889480} ", 
        "ind": "650"
    }, 
    {
        "data": " {cost -> 5252.07046116546, time-> 09:07:39.9955740} ", 
        "ind": "651"
    }, 
    {
        "data": " {cost -> 4666.89899976251, time-> 09:07:40.2602440} ", 
        "ind": "652"
    }, 
    {
        "data": " {cost -> 5963.95305349092, time-> 09:07:40.5100360} ", 
        "ind": "653"
    }, 
    {
        "data": " {cost -> 5391.61391509, time-> 09:07:40.9056590} ", 
        "ind": "654"
    }, 
    {
        "data": " {cost -> 5099.60286162608, time-> 09:07:41.1221640} ", 
        "ind": "655"
    }, 
    {
        "data": " {cost -> 5709.42094009251, time-> 09:07:41.4474350} ", 
        "ind": "656"
    }, 
    {
        "data": " {cost -> 4045.16665835246, time-> 09:07:41.6725970} ", 
        "ind": "657"
    }, 
    {
        "data": " {cost -> 4664.41048345222, time-> 09:07:42.0105990} ", 
        "ind": "658"
    }, 
    {
        "data": " {cost -> 5375.24212096974, time-> 09:07:42.2624520} ", 
        "ind": "659"
    }, 
    {
        "data": " {cost -> 6096.84383391712, time-> 09:07:42.5658780} ", 
        "ind": "660"
    }, 
    {
        "data": " {cost -> 3658.95151838208, time-> 09:07:42.6916400} ", 
        "ind": "661"
    }, 
    {
        "data": " {cost -> 4712.06832719475, time-> 09:07:42.8896940} ", 
        "ind": "662"
    }, 
    {
        "data": " {cost -> 5815.25686515566, time-> 09:07:43.0429860} ", 
        "ind": "663"
    }, 
    {
        "data": " {cost -> 5867.53782513898, time-> 09:07:43.3448000} ", 
        "ind": "664"
    }, 
    {
        "data": " {cost -> 3847.31079158262, time-> 09:07:43.5036300} ", 
        "ind": "665"
    }, 
    {
        "data": " {cost -> 5845.36198311371, time-> 09:07:43.7333550} ", 
        "ind": "666"
    }, 
    {
        "data": " {cost -> 5027.59447197962, time-> 09:07:43.9299970} ", 
        "ind": "667"
    }, 
    {
        "data": " {cost -> 4382.80167859499, time-> 09:07:44.1155420} ", 
        "ind": "668"
    }, 
    {
        "data": " {cost -> 4800.083785683, time-> 09:07:44.4395480} ", 
        "ind": "669"
    }, 
    {
        "data": " {cost -> 3705.70292849464, time-> 09:07:44.6661580} ", 
        "ind": "670"
    }, 
    {
        "data": " {cost -> 4646.15854490836, time-> 09:07:45.0445780} ", 
        "ind": "671"
    }, 
    {
        "data": " {cost -> 3860.37701949186, time-> 09:07:45.1823240} ", 
        "ind": "672"
    }, 
    {
        "data": " {cost -> 5399.02457395948, time-> 09:07:45.5235640} ", 
        "ind": "673"
    }, 
    {
        "data": " {cost -> 4743.45963118816, time-> 09:07:45.6249660} ", 
        "ind": "674"
    }, 
    {
        "data": " {cost -> 4697.25639126888, time-> 09:07:45.7587390} ", 
        "ind": "675"
    }, 
    {
        "data": " {cost -> 5919.57232826929, time-> 09:07:46.0764920} ", 
        "ind": "676"
    }, 
    {
        "data": " {cost -> 5719.72940594857, time-> 09:07:46.2386130} ", 
        "ind": "677"
    }, 
    {
        "data": " {cost -> 4518.54457492134, time-> 09:07:46.4063080} ", 
        "ind": "678"
    }, 
    {
        "data": " {cost -> 5496.48342810367, time-> 09:07:46.7661640} ", 
        "ind": "679"
    }, 
    {
        "data": " {cost -> 5974.43891981148, time-> 09:07:46.9937950} ", 
        "ind": "680"
    }, 
    {
        "data": " {cost -> 5473.01508943103, time-> 09:07:47.3671990} ", 
        "ind": "681"
    }, 
    {
        "data": " {cost -> 5123.29789313904, time-> 09:07:47.5670990} ", 
        "ind": "682"
    }, 
    {
        "data": " {cost -> 5761.03634568818, time-> 09:07:47.8852700} ", 
        "ind": "683"
    }, 
    {
        "data": " {cost -> 4423.69948421127, time-> 09:07:48.0486140} ", 
        "ind": "684"
    }, 
    {
        "data": " {cost -> 4887.43233867399, time-> 09:07:48.3127450} ", 
        "ind": "685"
    }, 
    {
        "data": " {cost -> 5695.00973959854, time-> 09:07:48.6294030} ", 
        "ind": "686"
    }, 
    {
        "data": " {cost -> 6024.7076111446, time-> 09:07:48.8151950} ", 
        "ind": "687"
    }, 
    {
        "data": " {cost -> 4527.31041259632, time-> 09:07:49.2294730} ", 
        "ind": "688"
    }, 
    {
        "data": " {cost -> 4296.40525619453, time-> 09:07:49.4153800} ", 
        "ind": "689"
    }, 
    {
        "data": " {cost -> 5603.40338923917, time-> 09:07:49.7454970} ", 
        "ind": "690"
    }, 
    {
        "data": " {cost -> 4956.27339925801, time-> 09:07:49.8510260} ", 
        "ind": "691"
    }, 
    {
        "data": " {cost -> 6084.88286389209, time-> 09:07:50.2248760} ", 
        "ind": "692"
    }, 
    {
        "data": " {cost -> 4367.23287437212, time-> 09:07:50.3706790} ", 
        "ind": "693"
    }, 
    {
        "data": " {cost -> 3859.57387177754, time-> 09:07:50.4842860} ", 
        "ind": "694"
    }, 
    {
        "data": " {cost -> 6370.61376017475, time-> 09:07:50.8502060} ", 
        "ind": "695"
    }, 
    {
        "data": " {cost -> 6295.63992294485, time-> 09:07:50.9403510} ", 
        "ind": "696"
    }, 
    {
        "data": " {cost -> 4938.460485215, time-> 09:07:51.0184340} ", 
        "ind": "697"
    }, 
    {
        "data": " {cost -> 4387.06570577497, time-> 09:07:51.4080630} ", 
        "ind": "698"
    }, 
    {
        "data": " {cost -> 5637.75812212038, time-> 09:07:51.6809580} ", 
        "ind": "699"
    }, 
    {
        "data": " {cost -> 4809.17475259252, time-> 09:07:52.1035920} ", 
        "ind": "700"
    }, 
    {
        "data": " {cost -> 5717.48774424005, time-> 09:07:52.3169440} ", 
        "ind": "701"
    }, 
    {
        "data": " {cost -> 5813.81156584174, time-> 09:07:52.6214440} ", 
        "ind": "702"
    }, 
    {
        "data": " {cost -> 6151.33115916352, time-> 09:07:52.7659610} ", 
        "ind": "703"
    }, 
    {
        "data": " {cost -> 6170.03016933918, time-> 09:07:53.0829740} ", 
        "ind": "704"
    }, 
    {
        "data": " {cost -> 5732.62618230887, time-> 09:07:53.2867490} ", 
        "ind": "705"
    }, 
    {
        "data": " {cost -> 4962.18962586705, time-> 09:07:53.4410930} ", 
        "ind": "706"
    }, 
    {
        "data": " {cost -> 5976.47231385809, time-> 09:07:53.7635780} ", 
        "ind": "707"
    }, 
    {
        "data": " {cost -> 3675.39126954676, time-> 09:07:53.8979420} ", 
        "ind": "708"
    }, 
    {
        "data": " {cost -> 5205.51985526653, time-> 09:07:54.0428740} ", 
        "ind": "709"
    }, 
    {
        "data": " {cost -> 5392.30504705605, time-> 09:07:54.3659180} ", 
        "ind": "710"
    }, 
    {
        "data": " {cost -> 5866.58155303859, time-> 09:07:54.5002500} ", 
        "ind": "711"
    }, 
    {
        "data": " {cost -> 5250.7559640005, time-> 09:07:54.6706370} ", 
        "ind": "712"
    }, 
    {
        "data": " {cost -> 5930.51308761787, time-> 09:07:54.9466920} ", 
        "ind": "713"
    }, 
    {
        "data": " {cost -> 3607.35908709902, time-> 09:07:55.2454770} ", 
        "ind": "714"
    }, 
    {
        "data": " {cost -> 6282.59498148769, time-> 09:07:55.5080850} ", 
        "ind": "715"
    }, 
    {
        "data": " {cost -> 4981.03182280713, time-> 09:07:55.9097050} ", 
        "ind": "716"
    }, 
    {
        "data": " {cost -> 6347.97277753046, time-> 09:07:56.0380720} ", 
        "ind": "717"
    }, 
    {
        "data": " {cost -> 4907.6143982209, time-> 09:07:56.3616620} ", 
        "ind": "718"
    }, 
    {
        "data": " {cost -> 5410.92309788298, time-> 09:07:56.5131510} ", 
        "ind": "719"
    }, 
    {
        "data": " {cost -> 4846.09707524497, time-> 09:07:56.6127130} ", 
        "ind": "720"
    }, 
    {
        "data": " {cost -> 6403.80743721264, time-> 09:07:56.9010060} ", 
        "ind": "721"
    }, 
    {
        "data": " {cost -> 4780.12168569198, time-> 09:07:57.0309130} ", 
        "ind": "722"
    }, 
    {
        "data": " {cost -> 4977.27924622173, time-> 09:07:57.1306050} ", 
        "ind": "723"
    }, 
    {
        "data": " {cost -> 4954.41129711863, time-> 09:07:57.4365720} ", 
        "ind": "724"
    }, 
    {
        "data": " {cost -> 5673.84620348293, time-> 09:07:57.6077390} ", 
        "ind": "725"
    }, 
    {
        "data": " {cost -> 4945.62946136472, time-> 09:07:57.7797420} ", 
        "ind": "726"
    }, 
    {
        "data": " {cost -> 4854.87837574389, time-> 09:07:58.1082960} ", 
        "ind": "727"
    }, 
    {
        "data": " {cost -> 4645.91377979858, time-> 09:07:58.4180860} ", 
        "ind": "728"
    }, 
    {
        "data": " {cost -> 4585.93509221693, time-> 09:07:58.7055960} ", 
        "ind": "729"
    }, 
    {
        "data": " {cost -> 6153.81019366435, time-> 09:07:58.8530830} ", 
        "ind": "730"
    }, 
    {
        "data": " {cost -> 4778.37001949211, time-> 09:07:59.1950990} ", 
        "ind": "731"
    }, 
    {
        "data": " {cost -> 4746.18654096554, time-> 09:07:59.4120440} ", 
        "ind": "732"
    }, 
    {
        "data": " {cost -> 6051.31984573052, time-> 09:07:59.6745590} ", 
        "ind": "733"
    }, 
    {
        "data": " {cost -> 5301.70692120021, time-> 09:07:59.9501570} ", 
        "ind": "734"
    }, 
    {
        "data": " {cost -> 4774.08231530426, time-> 09:08:00.1027230} ", 
        "ind": "735"
    }, 
    {
        "data": " {cost -> 5416.10025834684, time-> 09:08:00.4748430} ", 
        "ind": "736"
    }, 
    {
        "data": " {cost -> 6081.5566051798, time-> 09:08:00.6296350} ", 
        "ind": "737"
    }, 
    {
        "data": " {cost -> 5517.4673747935, time-> 09:08:01.0246980} ", 
        "ind": "738"
    }, 
    {
        "data": " {cost -> 4976.99482778934, time-> 09:08:01.1380320} ", 
        "ind": "739"
    }, 
    {
        "data": " {cost -> 4821.59811511179, time-> 09:08:01.5318550} ", 
        "ind": "740"
    }, 
    {
        "data": " {cost -> 4646.88052709952, time-> 09:08:01.7223590} ", 
        "ind": "741"
    }, 
    {
        "data": " {cost -> 5628.33178238951, time-> 09:08:02.1444450} ", 
        "ind": "742"
    }, 
    {
        "data": " {cost -> 5960.89937657528, time-> 09:08:02.2827920} ", 
        "ind": "743"
    }, 
    {
        "data": " {cost -> 4968.62037904897, time-> 09:08:02.6425320} ", 
        "ind": "744"
    }, 
    {
        "data": " {cost -> 5953.96740410228, time-> 09:08:02.8511960} ", 
        "ind": "745"
    }, 
    {
        "data": " {cost -> 5599.05503104678, time-> 09:08:02.9910050} ", 
        "ind": "746"
    }, 
    {
        "data": " {cost -> 5996.00181915274, time-> 09:08:03.3296090} ", 
        "ind": "747"
    }, 
    {
        "data": " {cost -> 5089.7766437278, time-> 09:08:03.6361730} ", 
        "ind": "748"
    }, 
    {
        "data": " {cost -> 5900.89044081905, time-> 09:08:03.9214130} ", 
        "ind": "749"
    }, 
    {
        "data": " {cost -> 5581.04266700533, time-> 09:08:04.3088300} ", 
        "ind": "750"
    }, 
    {
        "data": " {cost -> 5546.99638922573, time-> 09:08:04.6968270} ", 
        "ind": "751"
    }, 
    {
        "data": " {cost -> 4935.70958889048, time-> 09:08:04.8510000} ", 
        "ind": "752"
    }, 
    {
        "data": " {cost -> 5484.19467441092, time-> 09:08:05.1750310} ", 
        "ind": "753"
    }, 
    {
        "data": " {cost -> 6386.28468021, time-> 09:08:05.3543170} ", 
        "ind": "754"
    }, 
    {
        "data": " {cost -> 5919.66599554904, time-> 09:08:05.5332160} ", 
        "ind": "755"
    }, 
    {
        "data": " {cost -> 5489.00085602531, time-> 09:08:05.8347520} ", 
        "ind": "756"
    }, 
    {
        "data": " {cost -> 4105.41569308098, time-> 09:08:06.0836860} ", 
        "ind": "757"
    }, 
    {
        "data": " {cost -> 4845.42457609689, time-> 09:08:06.1854300} ", 
        "ind": "758"
    }, 
    {
        "data": " {cost -> 5508.02110216043, time-> 09:08:06.4749800} ", 
        "ind": "759"
    }, 
    {
        "data": " {cost -> 5715.88128193527, time-> 09:08:06.6184610} ", 
        "ind": "760"
    }, 
    {
        "data": " {cost -> 5387.18859912318, time-> 09:08:06.7704190} ", 
        "ind": "761"
    }, 
    {
        "data": " {cost -> 5483.61615582963, time-> 09:08:07.1023560} ", 
        "ind": "762"
    }, 
    {
        "data": " {cost -> 5981.10521258434, time-> 09:08:07.2225270} ", 
        "ind": "763"
    }, 
    {
        "data": " {cost -> 5350.23230387399, time-> 09:08:07.3395170} ", 
        "ind": "764"
    }, 
    {
        "data": " {cost -> 5298.70058257167, time-> 09:08:07.5801450} ", 
        "ind": "765"
    }, 
    {
        "data": " {cost -> 4566.17413578277, time-> 09:08:07.8199240} ", 
        "ind": "766"
    }, 
    {
        "data": " {cost -> 6049.65996617844, time-> 09:08:08.0815640} ", 
        "ind": "767"
    }, 
    {
        "data": " {cost -> 5721.77047160843, time-> 09:08:08.3399370} ", 
        "ind": "768"
    }, 
    {
        "data": " {cost -> 6087.47789793086, time-> 09:08:08.4607420} ", 
        "ind": "769"
    }, 
    {
        "data": " {cost -> 5093.45095709023, time-> 09:08:08.7461930} ", 
        "ind": "770"
    }, 
    {
        "data": " {cost -> 5668.09187656338, time-> 09:08:08.8796030} ", 
        "ind": "771"
    }, 
    {
        "data": " {cost -> 4774.18192944482, time-> 09:08:09.0281560} ", 
        "ind": "772"
    }, 
    {
        "data": " {cost -> 5287.19282671249, time-> 09:08:09.2294200} ", 
        "ind": "773"
    }, 
    {
        "data": " {cost -> 6094.16401407505, time-> 09:08:09.4848120} ", 
        "ind": "774"
    }, 
    {
        "data": " {cost -> 4785.42654240356, time-> 09:08:09.6320570} ", 
        "ind": "775"
    }, 
    {
        "data": " {cost -> 5007.79629919704, time-> 09:08:09.9135270} ", 
        "ind": "776"
    }, 
    {
        "data": " {cost -> 4332.87931982549, time-> 09:08:10.0581580} ", 
        "ind": "777"
    }, 
    {
        "data": " {cost -> 5481.19904491489, time-> 09:08:10.2016530} ", 
        "ind": "778"
    }, 
    {
        "data": " {cost -> 3840.14177230191, time-> 09:08:10.5048800} ", 
        "ind": "779"
    }, 
    {
        "data": " {cost -> 4286.49517435645, time-> 09:08:10.6659980} ", 
        "ind": "780"
    }, 
    {
        "data": " {cost -> 5181.69354507426, time-> 09:08:10.8344730} ", 
        "ind": "781"
    }, 
    {
        "data": " {cost -> 4880.11811946817, time-> 09:08:11.1535300} ", 
        "ind": "782"
    }, 
    {
        "data": " {cost -> 3678.46928603352, time-> 09:08:11.4134230} ", 
        "ind": "783"
    }, 
    {
        "data": " {cost -> 5901.74178647872, time-> 09:08:11.6310680} ", 
        "ind": "784"
    }, 
    {
        "data": " {cost -> 4932.78015956995, time-> 09:08:11.9066230} ", 
        "ind": "785"
    }, 
    {
        "data": " {cost -> 4883.30021540478, time-> 09:08:12.1627150} ", 
        "ind": "786"
    }, 
    {
        "data": " {cost -> 5810.10515899769, time-> 09:08:12.3986100} ", 
        "ind": "787"
    }, 
    {
        "data": " {cost -> 4576.34717219685, time-> 09:08:12.7761070} ", 
        "ind": "788"
    }, 
    {
        "data": " {cost -> 5932.41279890476, time-> 09:08:13.0721270} ", 
        "ind": "789"
    }, 
    {
        "data": " {cost -> 6317.52098001808, time-> 09:08:13.4503170} ", 
        "ind": "790"
    }, 
    {
        "data": " {cost -> 6372.91124554206, time-> 09:08:13.7562300} ", 
        "ind": "791"
    }, 
    {
        "data": " {cost -> 5054.43998623067, time-> 09:08:14.0160580} ", 
        "ind": "792"
    }, 
    {
        "data": " {cost -> 6115.03349790795, time-> 09:08:14.1834720} ", 
        "ind": "793"
    }, 
    {
        "data": " {cost -> 5045.51593221998, time-> 09:08:14.5476200} ", 
        "ind": "794"
    }, 
    {
        "data": " {cost -> 5913.20667241012, time-> 09:08:14.7622980} ", 
        "ind": "795"
    }, 
    {
        "data": " {cost -> 6225.92338413153, time-> 09:08:15.1106560} ", 
        "ind": "796"
    }, 
    {
        "data": " {cost -> 4901.37766042857, time-> 09:08:15.4479350} ", 
        "ind": "797"
    }, 
    {
        "data": " {cost -> 5430.25860924679, time-> 09:08:15.8346490} ", 
        "ind": "798"
    }, 
    {
        "data": " {cost -> 4467.82585141477, time-> 09:08:16.1689550} ", 
        "ind": "799"
    }, 
    {
        "data": " {cost -> 5534.05539195288, time-> 09:08:16.4209780} ", 
        "ind": "800"
    }, 
    {
        "data": " {cost -> 6072.49363424105, time-> 09:08:16.7474690} ", 
        "ind": "801"
    }, 
    {
        "data": " {cost -> 3791.2118755789, time-> 09:08:17.0071150} ", 
        "ind": "802"
    }, 
    {
        "data": " {cost -> 4253.10717789182, time-> 09:08:17.2387950} ", 
        "ind": "803"
    }, 
    {
        "data": " {cost -> 5014.81935796015, time-> 09:08:17.4828860} ", 
        "ind": "804"
    }, 
    {
        "data": " {cost -> 4714.05115101158, time-> 09:08:17.7023750} ", 
        "ind": "805"
    }, 
    {
        "data": " {cost -> 4515.89074080899, time-> 09:08:18.0199730} ", 
        "ind": "806"
    }, 
    {
        "data": " {cost -> 5566.05858950476, time-> 09:08:18.2732900} ", 
        "ind": "807"
    }, 
    {
        "data": " {cost -> 4526.2781345378, time-> 09:08:18.5375140} ", 
        "ind": "808"
    }, 
    {
        "data": " {cost -> 3712.79074454068, time-> 09:08:18.8254560} ", 
        "ind": "809"
    }, 
    {
        "data": " {cost -> 3757.96000252427, time-> 09:08:18.9654450} ", 
        "ind": "810"
    }, 
    {
        "data": " {cost -> 5558.336783971, time-> 09:08:19.3312780} ", 
        "ind": "811"
    }, 
    {
        "data": " {cost -> 4576.87203314885, time-> 09:08:19.5143540} ", 
        "ind": "812"
    }, 
    {
        "data": " {cost -> 3558.33659390563, time-> 09:08:19.9444350} ", 
        "ind": "813"
    }, 
    {
        "data": " {cost -> 4802.71221093218, time-> 09:08:20.0679570} ", 
        "ind": "814"
    }, 
    {
        "data": " {cost -> 5034.82424979382, time-> 09:08:20.3410990} ", 
        "ind": "815"
    }, 
    {
        "data": " {cost -> 5737.81979672218, time-> 09:08:20.6348600} ", 
        "ind": "816"
    }, 
    {
        "data": " {cost -> 3774.95533937928, time-> 09:08:20.7457650} ", 
        "ind": "817"
    }, 
    {
        "data": " {cost -> 4519.36082456787, time-> 09:08:21.1446980} ", 
        "ind": "818"
    }, 
    {
        "data": " {cost -> 5406.08310448013, time-> 09:08:21.2718070} ", 
        "ind": "819"
    }, 
    {
        "data": " {cost -> 5968.05465788583, time-> 09:08:21.6796640} ", 
        "ind": "820"
    }, 
    {
        "data": " {cost -> 5437.90339441193, time-> 09:08:21.9516420} ", 
        "ind": "821"
    }, 
    {
        "data": " {cost -> 5498.88384584427, time-> 09:08:22.2258990} ", 
        "ind": "822"
    }, 
    {
        "data": " {cost -> 4898.68045321963, time-> 09:08:22.5061210} ", 
        "ind": "823"
    }, 
    {
        "data": " {cost -> 5198.0448331114, time-> 09:08:22.7720490} ", 
        "ind": "824"
    }, 
    {
        "data": " {cost -> 5076.50586026869, time-> 09:08:23.0870670} ", 
        "ind": "825"
    }, 
    {
        "data": " {cost -> 7225.36332361822, time-> 09:08:23.3600490} ", 
        "ind": "826"
    }, 
    {
        "data": " {cost -> 5528.48287418947, time-> 09:08:23.5970040} ", 
        "ind": "827"
    }, 
    {
        "data": " {cost -> 6345.87590059117, time-> 09:08:23.8579660} ", 
        "ind": "828"
    }, 
    {
        "data": " {cost -> 5858.26067047907, time-> 09:08:24.0508500} ", 
        "ind": "829"
    }, 
    {
        "data": " {cost -> 6181.86405303241, time-> 09:08:24.2994770} ", 
        "ind": "830"
    }, 
    {
        "data": " {cost -> 5377.3797335845, time-> 09:08:24.5856250} ", 
        "ind": "831"
    }, 
    {
        "data": " {cost -> 5558.64999615774, time-> 09:08:24.6877390} ", 
        "ind": "832"
    }, 
    {
        "data": " {cost -> 4287.47166228562, time-> 09:08:24.9757660} ", 
        "ind": "833"
    }, 
    {
        "data": " {cost -> 5362.08510095797, time-> 09:08:25.1123460} ", 
        "ind": "834"
    }, 
    {
        "data": " {cost -> 4830.08537171023, time-> 09:08:25.2772170} ", 
        "ind": "835"
    }, 
    {
        "data": " {cost -> 6396.55926492752, time-> 09:08:25.6601810} ", 
        "ind": "836"
    }, 
    {
        "data": " {cost -> 5239.23903243327, time-> 09:08:25.8305930} ", 
        "ind": "837"
    }, 
    {
        "data": " {cost -> 4379.90679909737, time-> 09:08:26.2251960} ", 
        "ind": "838"
    }, 
    {
        "data": " {cost -> 5774.31290607339, time-> 09:08:26.3691560} ", 
        "ind": "839"
    }, 
    {
        "data": " {cost -> 6257.91800554827, time-> 09:08:26.7772210} ", 
        "ind": "840"
    }, 
    {
        "data": " {cost -> 5483.61828239664, time-> 09:08:26.9620930} ", 
        "ind": "841"
    }, 
    {
        "data": " {cost -> 5788.61900278275, time-> 09:08:27.2368270} ", 
        "ind": "842"
    }, 
    {
        "data": " {cost -> 2693.54477357453, time-> 09:08:27.5222230} ", 
        "ind": "843"
    }, 
    {
        "data": " {cost -> 5436.69594019279, time-> 09:08:27.6416990} ", 
        "ind": "844"
    }, 
    {
        "data": " {cost -> 5175.74817168222, time-> 09:08:27.9177210} ", 
        "ind": "845"
    }, 
    {
        "data": " {cost -> 5792.02739921545, time-> 09:08:28.0481640} ", 
        "ind": "846"
    }, 
    {
        "data": " {cost -> 5673.36451330577, time-> 09:08:28.1933100} ", 
        "ind": "847"
    }, 
    {
        "data": " {cost -> 6355.19740134635, time-> 09:08:28.5555250} ", 
        "ind": "848"
    }, 
    {
        "data": " {cost -> 5524.05884661091, time-> 09:08:28.7473050} ", 
        "ind": "849"
    }, 
    {
        "data": " {cost -> 2693.54477357453, time-> 09:08:29.1899720} ", 
        "ind": "850"
    }
]